es_ES;000001;1165.jpg;CÚPULA DE FUSIÓN PARA HAMBURGUESA 16;;1;2;0.9;Aluminio;Polido;Polido;0;0;0;Baquelite;0;0
es_ES;1165;1165.jpg;CÚPULA DE FUSIÓN PARA HAMBURGUESA 16 (4,5 x 16 x 16 - 96gr);;1;2;0.9;Aluminio;Polido;Polido;0;0;0;Baquelite;0;0
es_ES;000001;10.jpg;OLLA VAPORERA DE ARROZ 22;;1;2;1;Aluminio;Polido;Polido;Aluminio;0;Baquelite;Baquelite;Baquelite;0
es_ES;10;10.jpg;OLLA VAPORERA DE ARROZ 22 (15 x 22 x 34 - 1,5L - 710gr);;1;2;1;Aluminio;Polido;Polido;Aluminio;0;Baquelite;Baquelite;Baquelite;0
es_ES;000001;13.jpg;CUENCO OPACO;;1;2;1;Aluminio;Polido;Polido;0;0;0;0;0;0
es_ES;13;13.jpg;CUENCO OPACO 25- 6 x 25 x 25 - 1,5L - 150gr ;;1;2;1;Aluminio;Polido;Polido;0;0;0;0;0;0
es_ES;14;13.jpg;CUENCO OPACO 30 - 7 x 30 x 30 - 2,5L - 210gr ;;1;2;1;Aluminio;Polido;Polido;0;0;0;0;0;0
es_ES;15;13.jpg;CUENCO OPACO 35 - 8 x 35 x 35 - 5L - 340gr ;;1;2;1;Aluminio;Polido;Polido;0;0;0;0;0;0
es_ES;16;13.jpg;CUENCO OPACO 40 - 9,5 x 40 x 40 - 7L - 430gr ;;1;2;1;Aluminio;Polido;Polido;0;0;0;0;0;0
es_ES;17;13.jpg;CUENCO OPACO 45 - 11 x 45 x 45 - 10L - 555gr ;;1;2;1;Aluminio;Polido;Polido;0;0;0;0;0;0
es_ES;18;13.jpg;CUENCO OPACO 50 - 12,5 x 50 x 50 - 12,5L - 700gr ;;1;2;1;Aluminio;Polido;Polido;0;0;0;0;0;0
es_ES;19;13.jpg;CUENCO OPACO 55 - 13 x 55 x 55 - 16L - 810gr ;;1;2;1;Aluminio;Polido;Polido;0;0;0;0;0;0
es_ES;20;13.jpg;CUENCO OPACO 60 -13,5 x 60 x 60 - 21L - 980gr ;;1;2;1;Aluminio;Polido;Polido;0;0;0;0;0;0
es_ES;21;13.jpg;CUENCO OPACO 65 - 14 x 65 x 65 - 24L - 1,070k ;;1;2;1;Aluminio;Polido;Polido;0;0;0;0;0;0
es_ES;448;13.jpg;CUENCO OPACO 70 -16 x 70 x 70 - 33gr;;1;2;1;Aluminio;Polido;Polido;0;0;0;0;0;0
es_ES;000001;27,jpg;BANDEJA REDONDA;;1;2;1.2;Aluminio;Polido;Polido;0;0;0;0;0;0
es_ES;27;27,jpg;BANDEJA REDONDA 35 - 2,5 x 35 x 35 - 0,2L - 385gr;;1;2;1.2;Aluminio;Polido;Polido;0;0;0;0;0;0
es_ES;28;27,jpg;BANDEJA REDONDA 40 - 2,5 x 40 x 40 - 0,2L - 460gr;;1;2;1.2;Aluminio;Polido;Polido;0;0;0;0;0;0
es_ES;000001;29.jpg;BANDEJA RECTANGULAR;;1;2;0.15;Aluminio;Polido;Polido;0;0;0;0;0;0
es_ES;29;29.jpg;BANDEJA RECTANGULAR 03 - 1 x 27 x 40 - 0,1L - 375gr;;1;2;0.15;Aluminio;Polido;Polido;0;0;0;0;0;0
es_ES;30;29.jpg;BANDEJA RECTANGULAR 04 - 1,5 x 31 x 44 - 0,1L - 525gr;;1;2;0.15;Aluminio;Polido;Polido;0;0;0;0;0;0
es_ES;557;29.jpg;BANDEJA RECTANGULAR 05 - 1,5 x 35 x 48 - 0,15 - 745gr;;1;2;0.15;Aluminio;Polido;Polido;0;0;0;0;0;0
es_ES;000001;292,jpg;OLLA FREIDORA DE PAPAS BIG FRITAS;;1;2;1.7;Aluminio;Polido;Polido;0;0;0;Baquelite;Baquelite;0
es_ES;292;292,jpg;OLLA FREIDORA DE PAPAS BIG FRITAS 15,5 x 20,3 x 33 - 4,5L - 1,000K;;1;2;1.7;Aluminio;Polido;Polido;0;0;0;Baquelite;Baquelite;0
es_ES;000001;1170.jpg;OLLA FREIDORA DE PAPAS BIG FRITAS EIRIFLON;;1;2;1.7;Aluminio;Antiaderente;Preto;0;0;0;Baquelite;Baquelite;0
es_ES;1170;1170.jpg;OLLA FREIDORA DE PAPAS BIG FRITAS EIRIFLON 15,5 x 20 x 33 - 4,5L – 1,000k;;1;2;1.7;Aluminio;Antiaderente;Preto;0;0;0;Baquelite;Baquelite;0
es_ES;000001;1160.jpg;OLLA FREIDORA DE PAPAS BIG FRITAS RED;;1;2;1.7;Aluminio;Antiaderente;Vermelho;0;0;0;Baquelite;Baquelite;0
es_ES;1160;1160.jpg;OLLA FREIDORA DE PAPAS BIG FRITAS RED 15,5 x 20 x 33 - 4,5 - 1,000k;;1;2;1.7;Aluminio;Antiaderente;Vermelho;0;0;0;Baquelite;Baquelite;0
es_ES;000001;297.jpg;CACEROLA EIRIFLON ESPECIAL;;1;2;1.1;Aluminio;Antiaderente;Preto;Aluminio;1;0;Baquelite;Baquelite;0
es_ES;297;297.jpg;CACEROLA EIRIFLON ESPECIAL 16 - 7 X 16 X 27 - 1,5L - 285gr;;1;2;1.1;Aluminio;Antiaderente;Preto;Aluminio;1;0;Baquelite;Baquelite;0
es_ES;298;297.jpg;CACEROLA EIRIFLON ESPECIAL 18 - 7,5 X 18 X 29 - 2L - 325gr;;1;2;1.1;Aluminio;Antiaderente;Preto;Aluminio;1;0;Baquelite;Baquelite;0
es_ES;299;297.jpg;CACEROLA EIRIFLON ESPECIAL 20 - 8 x 20 x 33 - 2,7l - 390gr;;1;2;1.1;Aluminio;Antiaderente;Preto;Aluminio;1;0;Baquelite;Baquelite;0
es_ES;605;297.jpg;CACEROLA EIRIFLON ESPECIAL 22 - 9 x 22 x 35- 3L - 460gr;;1;2;1.1;Aluminio;Antiaderente;Preto;Aluminio;1;0;Baquelite;Baquelite;0
es_ES;606;297.jpg;CACEROLA EIRIFLON ESPECIAL 24 - 10 x 24 x 37 - 3,5L - 515gr;;1;2;1.1;Aluminio;Antiaderente;Preto;Aluminio;1;0;Baquelite;Baquelite;0
es_ES;613;297.jpg;CACEROLA EIRIFLON ESPECIAL 26 - 11 x 37 x 39 - 4L - 670gr;;1;2;1.1;Aluminio;Antiaderente;Preto;Aluminio;1;0;Baquelite;Baquelite;0
es_ES;000001;315.jpg;CACEROLA ESPECIAL;;1;2;1.1;Aluminio;Polido;Polido;Aluminio;1;0;Baquelite;Baquelite;0
es_ES;315;315.jpg;CACEROLA ESPECIAL 16 - 7 x 17 x 1,5l - 395gr;;1;2;1.1;Aluminio;Polido;Polido;Aluminio;1;0;Baquelite;Baquelite;0
es_ES;316;315.jpg;CACEROLA ESPECIAL 18 - 7,5 x 19 x 29 - 2l - 380gr;;1;2;1.1;Aluminio;Polido;Polido;Aluminio;1;0;Baquelite;Baquelite;0
es_ES;317;315.jpg;CACEROLA ESPECIAL 20 - 8 x 21 x 31 - 2,7l - 445gr;;1;2;1.1;Aluminio;Polido;Polido;Aluminio;1;0;Baquelite;Baquelite;0
es_ES;318;315.jpg;CACEROLA ESPECIAL 22 - 9 x 22 x 33 - 3,4l - 550gr;;1;2;1.1;Aluminio;Polido;Polido;Aluminio;1;0;Baquelite;Baquelite;0
es_ES;77;315.jpg;CACEROLA ESPECIAL 24 - 10,5 x 24 x 37 - 4,7l - 670gr;;1;2;1.1;Aluminio;Polido;Polido;Aluminio;1;0;Baquelite;Baquelite;0
es_ES;78;315.jpg;CACEROLA ESPECIAL 26 - 11 x 26 x 39 - 5,6l - 735gr;;1;2;1.1;Aluminio;Polido;Polido;Aluminio;1;0;Baquelite;Baquelite;0
es_ES;79;315.jpg;CACEROLA ESPECIAL 28 - 13 x 28 x 41 - 6,8l - 870gr;;1;2;1.1;Aluminio;Polido;Polido;Aluminio;1;0;Baquelite;Baquelite;0
es_ES;80;315.jpg;CACEROLA ESPECIAL 30 - 13,5 x 30 x 43 - 9l - 915gr;;1;2;1.1;Aluminio;Polido;Polido;Aluminio;1;0;Baquelite;Baquelite;0
es_ES;000001;188.jpg;CACEROLA JAPI;;1;2;0.9;Aluminio;Polido;Polido;0;0;Baquelite;0;0;0
es_ES;188;188.jpg;CACEROLA JAPI 14 - 6,5 x 15 x 26 - 0,9l - 145gr;;1;2;0.9;Aluminio;Polido;Polido;0;0;Baquelite;0;0;0
es_ES;86;188.jpg;CACEROLA JAPI 16 - 7 x 16 x 28 - 1,2l - 160gr;;1;2;0.9;Aluminio;Polido;Polido;0;0;Baquelite;0;0;0
es_ES;87;188.jpg;CACEROLA JAPI 18 - 7,5 x 18 x 33 - 1,6l - 190gr;;1;2;0.9;Aluminio;Polido;Polido;0;0;Baquelite;0;0;0
es_ES;88;188.jpg;CACEROLA JAPI 20 - 8,5 x 20 x 35 - 2,5l - 250gr;;1;2;0.9;Aluminio;Polido;Polido;0;0;Baquelite;0;0;0
es_ES;000001;463.jpg;CACEROLA LL CLARITY EIRIFLON;;1;2;3.0;Aluminio;Antiaderente;Preto;Vidro;1;0;Baquelite;Baquelite;0
es_ES;463;463.jpg;CACEROLA LL CLARITY EIRIFLON 18 - 9 x 18 x 32 - 2l - 982gr;;1;2;3.0;Aluminio;Antiaderente;Preto;Vidro;1;0;Baquelite;Baquelite;0
es_ES;464;463.jpg;CACEROLA LL CLARITY EIRIFLON 20 - 10 x 20 x 34 - 2,7l – 1,135k;;1;2;3.0;Aluminio;Antiaderente;Preto;Vidro;1;0;Baquelite;Baquelite;0
es_ES;474;463.jpg;CACEROLA LL CLARITY EIRIFLON 22 - 11 x 22 x 36 - 3,7l - 1420k;;1;2;3.0;Aluminio;Antiaderente;Preto;Vidro;1;0;Baquelite;Baquelite;0
es_ES;662;463.jpg;CACEROLA LL CLARITY EIRIFLON 24 - 12 x 21 x 28 - 5l - 1646k;;1;2;3.0;Aluminio;Antiaderente;Preto;Vidro;1;0;Baquelite;Baquelite;0
es_ES;000001;755.jpg;CACEROLA L L CLARITY RED;;1;2;3.0;Aluminio;Antiaderente;Vermelho;0;1;0;Baquelite;Baquelite;0
es_ES;755;755.jpg;CACEROLA L L CLARITY RED 18 - 9 x 18 x 32 - 2l - 994gr;;1;2;3.0;Aluminio;Antiaderente;Vermelho;0;1;0;Baquelite;Baquelite;0
es_ES;756;755.jpg;CACEROLA L L CLARITY RED 20 - 10 x 20 x 34 - 2,7l - 1,118gr;;1;2;3.0;Aluminio;Antiaderente;Vermelho;0;1;0;Baquelite;Baquelite;0
es_ES;757;755.jpg;CACEROLA L L CLARITY RED 22 - 11 x 22 x 36 - 3,7l - 1.420gr;;1;2;3.0;Aluminio;Antiaderente;Vermelho;0;1;0;Baquelite;Baquelite;0
es_ES;758;755.jpg;CACEROLA L L CLARITY RED 24 - 12 x 24 x 38 - 5l - 1,664gr;;1;2;3.0;Aluminio;Antiaderente;Vermelho;0;1;0;Baquelite;Baquelite;0
es_ES;000001;364.jpg;CACEROLA LÍNEA HOTEL;;1;2;2.2;Aluminio;Fosco;Fosco;Aluminio;0;0;Aluminio;Aluminio;0
es_ES;364;364.jpg;CACEROLA LÍNEA HOTEL 30 - 12 x 30 x 30 - 8l- 1,320gr;;1;2;2.2;Aluminio;Fosco;Fosco;Aluminio;0;0;Aluminio;Aluminio;0
es_ES;640;364.jpg;CACEROLA LÍNEA HOTEL 32 - 15 x 32 x 44 - 12l - 1,650gr;;1;2;2.2;Aluminio;Fosco;Fosco;Aluminio;0;0;Aluminio;Aluminio;0
es_ES;641;364.jpg;CACEROLA LÍNEA HOTEL 34 - 15,5 x 34 x 46 - 14l - 1,745gr;;1;2;2.2;Aluminio;Fosco;Fosco;Aluminio;0;0;Aluminio;Aluminio;0
es_ES;56;364.jpg;CACEROLA LÍNEA HOTEL 36 - 16,5 x 36 x 48 - 16 - 1,975gr;;1;2;2.2;Aluminio;Fosco;Fosco;Aluminio;0;0;Aluminio;Aluminio;0
es_ES;642;364.jpg;CACEROLA LÍNEA HOTEL 38 - 18 x 38 x 50 - 18l - 2,170gr;;1;2;2.2;Aluminio;Fosco;Fosco;Aluminio;0;0;Aluminio;Aluminio;0
es_ES;57;364.jpg;CACEROLA LÍNEA HOTEL 40 - 19 x 40 x 53 - 20l - 2,395grr;;1;2;2.2;Aluminio;Fosco;Fosco;Aluminio;0;0;Aluminio;Aluminio;0
es_ES;58;364.jpg;CACEROLA LÍNEA HOTEL 45 - 20 x 45 x 58 - 30l - 2,865gr;;1;2;2.2;Aluminio;Fosco;Fosco;Aluminio;0;0;Aluminio;Aluminio;0
es_ES;362;364.jpg;CACEROLA LÍNEA HOTEL 50 - 21 x 49 x 66 - 40l - 4 135gr;;1;2;2.2;Aluminio;Fosco;Fosco;Aluminio;0;0;Aluminio;Aluminio;0
es_ES;644;364.jpg;CACEROLA LÍNEA HOTEL 60 - 25 x 60 x 60 - 60l - 5,790gr;;1;2;2.2;Aluminio;Fosco;Fosco;Aluminio;0;0;Aluminio;Aluminio;0
es_ES;000001;711.jpg;CACEROLA LÍNEA HOTEL ESPECIAL;;1;2;1.8;Aluminio;Fosco;Fosco;Aluminio;0;0;Aluminio;Aluminio;0
es_ES;711;711.jpg;CACEROLA LÍNEA HOTEL ESPECIAL 24 - 11 x 24 x 33 - 4,7l - 480gr;;1;2;1.8;Aluminio;Fosco;Fosco;Aluminio;0;0;Aluminio;Aluminio;0
es_ES;712;711.jpg;CACEROLA LÍNEA HOTEL ESPECIAL 26 - 12 x 26 x 36 - 6l - 560gr;;1;2;1.8;Aluminio;Fosco;Fosco;Aluminio;0;0;Aluminio;Aluminio;0
es_ES;713;711.jpg;CACEROLA LÍNEA HOTEL ESPECIAL 28 - 12 x 28 x 38 - 7,7l - 735gr;;1;2;1.8;Aluminio;Fosco;Fosco;Aluminio;0;0;Aluminio;Aluminio;0
es_ES;714;711.jpg;CACEROLA LÍNEA HOTEL ESPECIAL 30 - 12 x 30 x 40 - 8l - 704gr;;1;2;1.8;Aluminio;Fosco;Fosco;Aluminio;0;0;Aluminio;Aluminio;0
es_ES;715;711.jpg;CACEROLA LÍNEA HOTEL ESPECIAL 32 - 14 x 32 x 44 - 12l - 1,142k;;1;2;1.8;Aluminio;Fosco;Fosco;Aluminio;0;0;Aluminio;Aluminio;0
es_ES;716;711.jpg;CACEROLA LÍNEA HOTEL ESPECIAL 34 - 15,5 x 34 x 46 - 14l - 1,156k;;1;2;1.8;Aluminio;Fosco;Fosco;Aluminio;0;0;Aluminio;Aluminio;0
es_ES;717;711.jpg;CACEROLA LÍNEA HOTEL ESPECIAL 36 - 16 x 36 x 48 - 16l - 1,334k;;1;2;1.8;Aluminio;Fosco;Fosco;Aluminio;0;0;Aluminio;Aluminio;0
es_ES;718;711.jpg;CACEROLA LÍNEA HOTEL ESPECIAL 38 - 16 x 38 x 50 x 18l - 1,380k;;1;2;1.8;Aluminio;Fosco;Fosco;Aluminio;0;0;Aluminio;Aluminio;0
es_ES;719;711.jpg;CACEROLA LÍNEA HOTEL ESPECIAL 40 - 19 x 40 x 52 - 20l - 1462k;;1;2;1.8;Aluminio;Fosco;Fosco;Aluminio;0;0;Aluminio;Aluminio;0
es_ES;720;711.jpg;CACEROLA LÍNEA HOTEL ESPECIAL 45 - 19 x 45 x 58 x 30l - 2,00k;;1;2;1.8;Aluminio;Fosco;Fosco;Aluminio;0;0;Aluminio;Aluminio;0
es_ES;721;711.jpg;CACEROLA LÍNEA HOTEL ESPECIAL 50 - 21 x 49 x 66 x 40l - 2,326k;;1;2;1.8;Aluminio;Fosco;Fosco;Aluminio;0;0;Aluminio;Aluminio;0
es_ES;738;711.jpg;CACEROLA LÍNEA HOTEL ESPECIAL 60 - 25 x 60 x 60 x 60l - 3,156k;;1;2;1.8;Aluminio;Fosco;Fosco;Aluminio;0;0;Aluminio;Aluminio;0
es_ES;000001;319.jpg;CACEROLA LONG LIFE;;1;2;3;Aluminio;Polido;Polido;Aluminio;1;0;Baquelite;Baquelite;0
es_ES;319;319.jpg;CACEROLA LONG LIFE 16 - 8 x 16 x 30 - 1,4l - 700gr;;1;2;3;Aluminio;Polido;Polido;Aluminio;1;0;Baquelite;Baquelite;0
es_ES;320;319.jpg;CACEROLA LONG LIFE 18 - 9 x 18 x 32 - 2l - 816gr;;1;2;3;Aluminio;Polido;Polido;Aluminio;1;0;Baquelite;Baquelite;0
es_ES;321;319.jpg;CACEROLA LONG LIFE20 - 10 x 20 x 34 - 2,7l - 994gr;;1;2;3;Aluminio;Polido;Polido;Aluminio;1;0;Baquelite;Baquelite;0
es_ES;322;319.jpg;CACEROLA LONG LIFE 22 - 11 x 22 x 36 x 3,7l - 1,132k;;1;2;3;Aluminio;Polido;Polido;Aluminio;1;0;Baquelite;Baquelite;0
es_ES;323;319.jpg;CACEROLA LONG LIFE 24 - 12 x 24 x 37 - 5l - 1,330k;;1;2;3;Aluminio;Polido;Polido;Aluminio;1;0;Baquelite;Baquelite;0
es_ES;209;319.jpg;CACEROLA LONG LIFE 26 13 x 26 x 41 - 6,4l - 1,546k;;1;2;3;Aluminio;Polido;Polido;Aluminio;1;0;Baquelite;Baquelite;0
es_ES;592;319.jpg; CACEROLA LONG LIFE 28 - 13 x 28 x 43 - 7,5l - 1,680k;;1;2;3;Aluminio;Polido;Polido;Aluminio;1;0;Baquelite;Baquelite;0
es_ES;593;319.jpg;CACEROLA LONG LIFE 30- 14 x 30 x 45 - 9,3l - 1,838k;;1;2;3;Aluminio;Polido;Polido;Aluminio;1;0;Baquelite;Baquelite;0
es_ES;000001;566.jpg;CACEROLA LONG LIFE EIRIFLON;;1;2;3.0;Aluminio;Antiaderente;Preto;Aluminio;1;0;Baquelite;Baquelite;0
es_ES;556;566.jpg;CACEROLA LONG LIFE EIRIFLON 16 - 8 x 16 x 30 - 1,4l - 700g;;1;2;3.0;Aluminio;Antiaderente;Preto;Aluminio;1;0;Baquelite;Baquelite;0
es_ES;567;566.jpg;CACEROLA LONG LIFE EIRIFLON 18 -  9 x 18 x 32 - 2l – 816gr;;1;2;3.0;Aluminio;Antiaderente;Preto;Aluminio;1;0;Baquelite;Baquelite;0
es_ES;568;566.jpg;CACEROLA LONG LIFE EIRIFLON 20 - 10 x 20 x 34 - 2,7l - 994gr;;1;2;3.0;Aluminio;Antiaderente;Preto;Aluminio;1;0;Baquelite;Baquelite;0
es_ES;569;566.jpg;CACEROLA LONG LIFE EIRIFLON 22 - 11 x 22 x 36 x 3,7l - 1,132k;;1;2;3.0;Aluminio;Antiaderente;Preto;Aluminio;1;0;Baquelite;Baquelite;0
es_ES;570;566.jpg;CACEROLA LONG LIFE EIRIFLON 24 - 12 x 24 x 37 - 5l - 1,330k;;1;2;3.0;Aluminio;Antiaderente;Preto;Aluminio;1;0;Baquelite;Baquelite;0
es_ES;571;566.jpg;CACEROLA LONG LIFE EIRIFLON 26 - 13 x 26 x 41 - 6,4l - 1,546k;;1;2;3.0;Aluminio;Antiaderente;Preto;Aluminio;1;0;Baquelite;Baquelite;0
es_ES;590;566.jpg;CACEROLA LONG LIFE EIRIFLON 28 - 13 x 28 x 43 - 7,5l - 1,680k;;1;2;3.0;Aluminio;Antiaderente;Preto;Aluminio;1;0;Baquelite;Baquelite;0
es_ES;591;566.jpg;CACEROLA LONG LIFE EIRIFLON 30 - 14 x 30 x 45 - 9,3l - 1,838k;;1;2;3.0;Aluminio;Antiaderente;Preto;Aluminio;1;0;Baquelite;Baquelite;0
es_ES;000001;310.jpg;CACEROLA NOBLE;;1;2;1,9;Aluminio;Polido;Polido;Aluminio;1;0;Baquelite;Baquelite;0
es_ES;310;310.jpg;CACEROLA NOBLE 16 - 8 x 16 x 28 - 1,5l - 565gr;;1;2;1,9;Aluminio;Polido;Polido;Aluminio;1;0;Baquelite;Baquelite;0
es_ES;311;310.jpg;CACEROLA NOBLE 18 - 8,5 x 18 x 30 - 2l - 650gr;;1;2;1,9;Aluminio;Polido;Polido;Aluminio;1;0;Baquelite;Baquelite;0
es_ES;312;310.jpg;CACEROLA NOBLE 20 - 9 x 20 x 32 - 2,7l - 755gr;;1;2;1,9;Aluminio;Polido;Polido;Aluminio;1;0;Baquelite;Baquelite;0
es_ES;313;310.jpg;CACEROLA NOBLE 22 - 10 x 22 x 3,6l - 885gr;;1;2;1,9;Aluminio;Polido;Polido;Aluminio;1;0;Baquelite;Baquelite;0
es_ES;52;310.jpg;CACEROLA NOBLE 24 - 11 x 24 x 38 - 4,6l - 970gr;;1;2;1,9;Aluminio;Polido;Polido;Aluminio;1;0;Baquelite;Baquelite;0
es_ES;53;310.jpg;CACEROLA NOBLE 26 - 11,5 x 26 x 40 - 5,7l - 1,210k;;1;2;1,9;Aluminio;Polido;Polido;Aluminio;1;0;Baquelite;Baquelite;0
es_ES;54;310.jpg;CACEROLA NOBLE 28 - 12,5 x 28 x 42 - 6,9l - 1,340k;;1;2;1,9;Aluminio;Polido;Polido;Aluminio;1;0;Baquelite;Baquelite;0
es_ES;55;310.jpg;CACEROLA NOBLE 30 - 13,5 x 30 x 44- 7,8l - 1,585k;;1;2;1,9;Aluminio;Polido;Polido;Aluminio;1;0;Baquelite;Baquelite;0
es_ES;000001;325.jpg;CACEROLA NOBLE EIRIFLON;;1;2;1,9;Aluminio;Antiaderente;Preto;Aluminio;1;0;Baquelite;Baquelite;0
es_ES;325;325.jpg;CACEROLA NOBLE EIRIFLON 16 - 8 x 16 x 28 - 1,5l - 565gr;;1;2;1,9;Aluminio;Antiaderente;Preto;Aluminio;1;0;Baquelite;Baquelite;0
es_ES;326;325.jpg;CACEROLA NOBLE EIRIFLON 18 - 8,5 x 18 x 30 - 2l - 650gr;;1;2;1,9;Aluminio;Antiaderente;Preto;Aluminio;1;0;Baquelite;Baquelite;0
es_ES;327;325.jpg;CACEROLA NOBLE EIRIFLON 20 - 9 x 20 x 32 - 2,7l - 755gr;;1;2;1,9;Aluminio;Antiaderente;Preto;Aluminio;1;0;Baquelite;Baquelite;0
es_ES;328;325.jpg;CACEROLA NOBLE EIRIFLON 22- 10 x 22 x 3,6l - 885gr;;1;2;1,9;Aluminio;Antiaderente;Preto;Aluminio;1;0;Baquelite;Baquelite;0
es_ES;329;325.jpg;CACEROLA NOBLE EIRIFLON 24- 11 x 24 x 38 - 4,6l - 970gr;;1;2;1,9;Aluminio;Antiaderente;Preto;Aluminio;1;0;Baquelite;Baquelite;0
es_ES;233;325.jpg;CACEROLA NOBLE EIRIFLON 26 - 11,5 x 26 x 40 - 5,7l - 1,210k;;1;2;1,9;Aluminio;Antiaderente;Preto;Aluminio;1;0;Baquelite;Baquelite;0
es_ES;210;325.jpg;CACEROLA NOBLE EIRIFLON 28-12,5 x 28 x 42 - 6,9l - 1,340k;;1;2;1,9;Aluminio;Antiaderente;Preto;Aluminio;1;0;Baquelite;Baquelite;0
es_ES;000001;679.jpg;CACEROLA NOBLE RED;;1;2;1,9;Aluminio;Antiaderente;Vermelho;Vidro;1;0;Baquelite;Baquelite;0
es_ES;679;679.jpg;CACEROLA NOBLE RED 18 - 10 x 18 x 30 - 2l - 515gr;;1;2;1,9;Aluminio;Antiaderente;Vermelho;Vidro;1;0;Baquelite;Baquelite;0
es_ES;680;679.jpg;CACEROLA NOBLE RED 20 - 11 x 20 x 34 - 3l - 650gr;;1;2;1,9;Aluminio;Antiaderente;Vermelho;Vidro;1;0;Baquelite;Baquelite;0
es_ES;682;679.jpg;CACEROLA NOBLE RED 24 - 13,3 x 24 x 38 - 5,5l - 755gr;;1;2;1,9;Aluminio;Antiaderente;Vermelho;Vidro;1;0;Baquelite;Baquelite;0
es_ES;681;679.jpg;CACEROLA NOBLE RED 22 - 12 x 22 x 36 - 4 - 735gr;;1;2;1,9;Aluminio;Antiaderente;Vermelho;Vidro;1;0;Baquelite;Baquelite;0
es_ES;000001;99,jpg;CAFELAR PULIDA;;1;2;1,1;Aluminio;Polido;Polido;Aluminio;0;Baquelite;Baquelite;0;0
es_ES;99;99,jpg;CAFELAR PULIDA - 24 x 13,5 x 19 - 1,5l - 410gr;;1;2;1,1;Aluminio;Polido;Polido;Aluminio;0;Baquelite;Baquelite;0;0
es_ES;000001;100,jpg;CAFETERA COMPLETA;;1;2;1,2;Aluminio;Polido;Polido;0;0;Baquelite;Baquelite;0;0
es_ES;100;100,jpg;CAFETERA COMPLETA - 20 x 11 x 23 - 1,6l - 305gr;;1;2;1,2;Aluminio;Polido;Polido;0;0;Baquelite;Baquelite;0;0
es_ES;000001;724.jpg;CALDERO LÍNEA HOTEL ESPECIAL;;1;2;1,8;Aluminio;Fosco;Fosco;0;0;0;Aluminio;Aluminio;0
es_ES;724;724.jpg;CALDERO LÍNEA HOTEL ESPECIAL 24 - 23 x 24 x 33 - 10l - 720gr;;1;2;1,8;Aluminio;Fosco;Fosco;0;0;0;Aluminio;Aluminio;0
es_ES;725;724.jpg;CALDERO LÍNEA HOTEL ESPECIAL 26 - 24 x 26 x 35 - 12l - 870gr;;1;2;1,8;Aluminio;Fosco;Fosco;0;0;0;Aluminio;Aluminio;0
es_ES;726;724.jpg;CALDERO LÍNEA HOTEL ESPECIAL 28 - 24 x 28 x37 - 15l - 955gr;;1;2;1,8;Aluminio;Fosco;Fosco;0;0;0;Aluminio;Aluminio;0
es_ES;727;724.jpg;CALDERO LÍNEA HOTEL ESPECIAL 30 - 26 x 30 x 41 - 18l - 1350k;;1;2;1,8;Aluminio;Fosco;Fosco;0;0;0;Aluminio;Aluminio;0
es_ES;728;724.jpg;CALDERO LÍNEA HOTEL ESPECIAL 32 - 27 x 32 x 44 - 21l -1,760k;;1;2;1,8;Aluminio;Fosco;Fosco;0;0;0;Aluminio;Aluminio;0
es_ES;729;724.jpg;CALDERO LÍNEA HOTEL ESPECIAL 34- 29 x 33 x 45 - 25l - 1448gk;;1;2;1,8;Aluminio;Fosco;Fosco;0;0;0;Aluminio;Aluminio;0
es_ES;730;724.jpg;CALDERO LÍNEA HOTEL ESPECIAL 36 - 32 x 36 x 48 - 30 - 1748gk;;1;2;1,8;Aluminio;Fosco;Fosco;0;0;0;Aluminio;Aluminio;0
es_ES;731;724.jpg;CALDERO LÍNEA HOTEL ESPECIAL 38 - 33 - 35 x 37 x 35l - 1,900gk;;1;2;1,8;Aluminio;Fosco;Fosco;0;0;0;Aluminio;Aluminio;0
es_ES;732;724.jpg;CALDERO LÍNEA HOTEL ESPECIAL 40- 35,5 x 38 x 51 - 42l - 2,226k;;1;2;1,8;Aluminio;Fosco;Fosco;0;0;0;Aluminio;Aluminio;0
es_ES;733;724.jpg;CALDERO LÍNEA HOTEL ESPECIAL 45 -45 - 42,5 x 43 x 57 - 62l- 2914k;;1;2;1,8;Aluminio;Fosco;Fosco;0;0;0;Aluminio;Aluminio;0
es_ES;734;724.jpg;CALDERO LÍNEA HOTEL ESPECIAL 50 - 47 x 48 x 65 - 85l 3,628;;1;2;1,8;Aluminio;Fosco;Fosco;0;0;0;Aluminio;Aluminio;0
es_ES;000001;60.jpg;CALDERO NOBLE;;1;2;1,7;Aluminio;Polido;Polido;0;1;0;Baquelite;Baquelite;0
es_ES;60;60.jpg;CALDERO NOBLE 16 - 12 x 16 x 28 - 2,2l - 665gr;;1;2;1,7;Aluminio;Polido;Polido;0;1;0;Baquelite;Baquelite;0
es_ES;61;60.jpg;CALDERO NOBLE 18 - 14 x 18 x 30 - 3,2 - 770gr;;1;2;1,7;Aluminio;Polido;Polido;0;1;0;Baquelite;Baquelite;0
es_ES;000001;238,jpg;CALDERO NOBLE EIRIFLON;;1;2;1,7;Aluminio;Antiaderente;Preto;0;1;0;Baquelite;Baquelite;0
es_ES;238;238,jpg;CALDERO NOBLE EIRIFLON 16 - 12 x 16 x 28 - 2,2l - 665gr;;1;2;1,7;Aluminio;Antiaderente;Preto;0;1;0;Baquelite;Baquelite;0
es_ES;239;238,jpg;CALDERO NOBLE EIRIFLON 18 - 14 x 18 x 30 - 3,2 - 770gr;;1;2;1,7;Aluminio;Antiaderente;Preto;0;1;0;Baquelite;Baquelite;0
es_ES;000001;91,jpg;CALDERO PULIDO;;1;2;1;Aluminio;Polido;Polido;0;0;0;0;Aluminio;0
es_ES;91;91,jpg;CALDERO PULIDO 12 - 11 x 12 x15 - 1,7l - 180gr ;;1;2;1;Aluminio;Polido;Polido;0;0;0;0;Aluminio;0
es_ES;92;91,jpg;CALDERO PULIDO 14 - 13 x 14 x 17 - 2,4l - 240gr ;;1;2;1;Aluminio;Polido;Polido;0;0;0;0;Aluminio;0
es_ES;93;91,jpg;CALDERO PULIDO 16 - 14 x 16 x 19 - 3,4l - 315gr ;;1;2;1;Aluminio;Polido;Polido;0;0;0;0;Aluminio;0
es_ES;94;91,jpg;CALDERO PULIDO 18 - 15 x 18 x 21 - 4,5l - 370gr;;1;2;1;Aluminio;Polido;Polido;0;0;0;0;Aluminio;0
es_ES;000001;108,jpg;JARRA CERVEZA ONDEADA;;1;2;1;Aluminio;Polido;Polido;0;0;0;0;Aluminio;0
es_ES;108;108,jpg;JARRA CERVEZA ONDEADA - 10 x 10,5 x 13 - 0,5ml - 0,90gr;;1;2;1;Aluminio;Polido;Polido;0;0;0;0;Aluminio;0
es_ES;000001;40.jpg;TETERA PULIDA;;1;2;1,2;Aluminio;Polido;Polido;Aluminio;0;0;Baquelite;Baquelite;0
es_ES;40;40.jpg;TETERA PULIDA 02 - 12 x 15 x 22 - 1,2l - 335gr ;;1;2;1,2;Aluminio;Polido;Polido;Aluminio;0;0;Baquelite;Baquelite;0
es_ES;41;40.jpg;TETERA PULIDA 03 - 13 x 18 x 26 - 2,6l - 395gr;;1;2;1,2;Aluminio;Polido;Polido;Aluminio;0;0;Baquelite;Baquelite;0
es_ES;000001;114.jpg;CUCHARÓN BABY;;1;2;1,2;Aluminio;0;Fosco;0;0;Aluminio;0;0;0
es_ES;114;114.jpg;CUCHARÓN BABY - 2,7 x 7,5 x 23 - 0,05ml - 610gr;;1;2;1,2;Aluminio;0;Fosco;0;0;Aluminio;0;0;0
es_ES;000001;251,jpg;CUCHARÓN LÍNEA HOTEL;;1;2;1,5;Aluminio;0;Fosco;0;0;Aluminio;0;0;0
es_ES;251;251,jpg;CUCHARÓN LÍNEA HOTEL 12 - 5 x 12 x 47 - 0,35ml - 205gr ;;1;2;1,5;Aluminio;0;Fosco;0;0;Aluminio;0;0;0
es_ES;287;251,jpg;CUCHARÓN LÍNEA HOTEL 14 - 5,5 x 14 x 47 - 0,60ml - 230gr;;1;2;1,5;Aluminio;0;Fosco;0;0;Aluminio;0;0;0
es_ES;000001;115.jpg;CUCHARÓN SUPER FORTE;;1;2;1,2;Aluminio;0;Fosco;0;0;Aluminio;0;0;0
es_ES;115;115.jpg;CUCHARÓN SUPER FORTE - 3 x 8,5 x 26 - 865gr;;1;2;1,2;Aluminio;0;Fosco;0;0;Aluminio;0;0;0
es_ES;000001;285,jpg;BATERÍA DE COCINA ANGELA 7 PIEZAS;;1;2;1,8;Aluminio;Polido;Polido;Aluminio;1;Baquelite;Baquelite;Baquelite;0
es_ES;285;285,jpg;BATERÍA DE COCINA ANGELA 7 PIEZAS - 17,5 - 50,5 - 72,5 - 5,304k ;1 - Lechero 14cm<br>1 - Cacerola c/ tapa 18cm<br>1 - Olla c/ tapa 16,18 e 20cm<br>1 - Sartén c/ tapa 20cm<br>1 - Olla de Presión 4,5lts;1;2;1,8;Aluminio;Polido;Polido;Aluminio;1;Baquelite;Baquelite;Baquelite;0
es_ES;000001;441,jpg;BATERÍA DE COCINA CLARITY EIRIFLON 4 PIEZAS;1 - Lechero 14cm<br>1 - Cacerola c/ tapa 18cm<br>1 - Olla c/ tapa 16,18 e 20cm<br>1 - Sartén c/ tapa 20cm<br>1 - Olla de Presión 4,5lts;1;2;3;Aluminio;Antiaderente;Preto;Vidro;1;Baquelite;Baquelite;Baquelite;0
es_ES;000001;438.jpg;BATERÍA DE COCINA CLARITY RED 4 PIEZAS;"1 - Cacerola c/ tapa 18, 20 e 22cm<br>1 - Sartén c/ tapa 20cm""";1;2;3;Aluminio;Antiaderente;Vermelho;Vidro;1;Baquelite;Baquelite;Baquelite;0
es_ES;000001;620.jpg;BATERÍA DE COCINA CLARITY RED 5 PIEZAS;"Lechero 14cm<br>Cacerola c/ tapa 20cm<br>Olla c/ tapa 18cm<br>Olla de Presión Fechamento Externo 4lts<br>Sartén c/ tapa 20cm""";1;2;3.0;Aluminio;Antiaderente;Vermelho;Vidro;1;Baquelite;Baquelite;Baquelite;0
es_ES;000001;284.jpg;BATERÍA DE COCINA DAKAR EIRIFLON 7 PIEZAS;1 - Cacerola c/ tapa 18cm<br>1 - Olla c/ tapa 16,18 e 20cm<br>1 - Sartén c/ tapa 20cm<br>1 - Olla de Presión 4,5lts;1;2;1,2;Aluminio;Antiaderente;Preto;Aluminio;1;Baquelite;Baquelite;Baquelite;0
es_ES;000001;459.jpg;BATERÍA DE COCINA FABIANA 5 PC;1 - Lechero 14cm<br>1 - Cacerola c/ tapa 18cm<br>1 - Cacerola c/ tapa 16cm<br>1 -Sartén Francés Antiaderente 18cm<br>1 - Olla Presión 3lts;1;2;1,8;Aluminio;Polido;Polido;Aluminio;1;Baquelite;Baquelite;Baquelite;0
es_ES;000001;612,jpg;BATERÍA DE COCINA LONG LIFE 5 PIEZAS;1 - Cacerola c/ tapa 22cm<br>1 - Olla c/ tapa 16 e 18cm<br>1 - Sartén s/ tapa 20cm;1;2;3;Aluminio;Polido;Polido;Aluminio;1;Baquelite;Baquelite;Baquelite;0
es_ES;000001;443,jpg;BATERÍA DE COCINA LONG LIFE 6 PIEZAS;1 - Cacerola c/ tapa 18cm<br>1 - Olla c/ tapa 16, 18 e 20cm<br>1 - Sartén s/ tapa 20cm;1;2;3.0;Aluminio;Polido;Polido;Aluminio;1;Baquelite;Baquelite;Baquelite;0
es_ES;000001;449,jpg;BATERÍA DE COCINA LONG LIFE EIRIFLON 6 PIEZAS;1 - Caçarola c/ tampa 18cm<br>1 - Panela c/ tampa 16, 18 e 20cm<br>1 - Frigideira s/ tampa 20cm;1;2;3;Aluminio;Antiaderente;Preto;Aluminio;1;Baquelite;Baquelite;Baquelite;0
es_ES;000001;258,jpg;BATERÍA DE COCINA MARIA EDUARDA 5 PIEZAS;1 - Caçarola c/ tampa 16cm<br>1 - Panela c/ tampa 16 e 18cm<br>1 - Frigideira s/ tampa 18cm;1;2;1,2;Aluminio;Polido;Polido;Aluminio;1;Baquelite;Baquelite;Baquelite;0
es_ES;000001;255,jpg;BATERÍA DE COCINA MULTI-USO 3 EN 1;;1;2;1,2;Aluminio;Polido;Polido;Aluminio;1;;Baquelite;Baquelite;0
es_ES;000001;810.jpg;BATERÍA DE COCINA NEW PRATIC 5 PIEZAS;1 - Cacerola c/ tapa 16, 18, 20, 22 e 24cm;1;2;1,2;Aluminio;Polido;Polido;Aluminio;1;;Baquelite;Baquelite;0
es_ES;000001;992.jpg;BATERÍA DE COCINA NOBLE RED 5 PIEZAS;1 - Cacerola c/ tapa 16, 18, 20, 22 e 24cm;1;2;1,8;Aluminio;Antiaderente;Vermelho;Aluminio;1;Baquelite;Baquelite;Baquelite;0
es_ES;000001;677,jpg;BATERÍA DE COCINA ABUELA LUZIA EIRIFLON 5 PIEZAS;1 - Lechero 14cm<br>1 - Cacerola c/ tapa 16cm<br>1 - Olla c/ tapa 16 e 18cm<br>1 - Sartén s/ tapa 18cm;1;2;1,2;Aluminio;Antiaderente;Preto;Aluminio;1;Baquelite;Baquelite;Baquelite;0
es_ES;000001;112.jpg;VASO EXTRA PULIDO;;1;2;1;Aluminio;Fosco;Polido;;0;;;;0
es_ES;000001;113.jpg;VASO EXTRA PULIDO CON ALA;;1;2;1;Aluminio;Fosco;Polido;;0;;;Aluminio;0
es_ES;000001;111,jpg;COPO EXTRA PULIDO INFANTIL;;1;2;1;Aluminio;Fosco;Polido;;0;;;;0
es_ES;000001;1198,jpg;OLLA VAPORERA COZI VAPORE;;1;2;1,2;Aluminio;Antiaderente;Preto;Vidro;1;;Baquelite;Baquelite;0
es_ES;000001;417.jpg;COLADOR PARA PASTA LÍNEA HOTEL;;1;2;1,3;Aluminio;Fosco;Fosco;Aluminio;0;;Aluminio;Aluminio;0
es_ES;417;417.jpg;COLADOR PARA PASTA LÍNEA HOTEL 30 - 19 X 30 X 41 - 6L - 350GR;;1;2;1,3;Aluminio;Fosco;Fosco;Aluminio;1;;Aluminio;Aluminio;1
es_ES;418;417.jpg;COLADOR PARA PASTA LÍNEA HOTEL 35 - 22 X 35 X 46 - 10L - 1040K;;1;2;1,3;Aluminio;Fosco;Fosco;Aluminio;1;;Aluminio;Aluminio;1
es_ES;419;417.jpg;COLADOR PARA PASTA LÍNEA HOTEL 40 - 24 X 40 X 54 - 18L - 1240K;;1;2;1,3;Aluminio;Fosco;Fosco;Aluminio;1;;Aluminio;Aluminio;1
es_ES;550;417.jpg;COLADOR PARA PASTA LÍNEA HOTEL 45 - 28 X 45 X 59 - 22L - 1590K;;1;2;1,3;Aluminio;Fosco;Fosco;Aluminio;1;;Aluminio;Aluminio;1
es_ES;420;417.jpg;COLADOR PARA PASTA LÍNEA HOTEL 30,5 X 52,5 X 30L - 1930K;;1;2;1,3;Aluminio;Fosco;Fosco;Aluminio;1;;Aluminio;Aluminio;1
es_ES;000001;118,jpg;COLADOR PARA PASTA;;1;2;1,8;Aluminio;Fosco;Polido;Aluminio;1;;Baquelite;Baquelite;0
es_ES;118;118,jpg;118 - COLADOR PARA PASTA 22 - 11 x 22 x 33 - 2,8l - 345gr;;1;2;1,8;Aluminio;Fosco;Polido;Aluminio;1;;Baquelite;Baquelite;0
es_ES;673;118,jpg;673 - COLADOR PARA PASTA 24 - 12,5 x 25 x 38 - 4l - 405gr;;1;2;1,8;Aluminio;Fosco;Polido;Aluminio;1;;Baquelite;Baquelite;0
es_ES;000001;348,jpg;OLLA ESPAGUETERA NOBLE EIRIFLON 20;;1;2;1,7;Aluminio;Antiaderente;Preto;Aluminio;1;;Baquelite;Baquelite;0
es_ES;000001;353,jpg;OLLA ESPAGUETERA NOBLE RED;;1;2;1,7;Aluminio;Antiaderente;Vermelho;Aluminio;0;;Baquelite;Baquelite;0
es_ES;000001;116,jpg;ESPUMADERA BABY;;1;2;1,2;Aluminio;Fosco;Fosco;;0;Aluminio;;;0
es_ES;000001;288,jpg;ESPUMADERA LÍNEA HOTEL;;1;2;1,5;Aluminio;Fosco;Fosco;;0;Aluminio;;;0
es_ES;000001;117,jpg;ESPUMADERA SUPER FUERTE;;1;2;1,2;Aluminio;Fosco;Fosco;;0;Aluminio;;;0
es_ES;000001;119,jpg;HERVIDOR PULIDO;;1;2;1,8;Aluminio;Fosco;Polido;Aluminio;;Baquelite;Baquelite;;0
es_ES;119;119,jpg;HERVIDOR PULIDO 14 - 11 X 14 X 20 - 1,5L - 265GR;;1;2;1,8;Aluminio;Fosco;Polido;Aluminio;;Baquelite;Baquelite;;0
es_ES;120;119,jpg;HERVIDOR PULIDO 16 - 11 X 16 X 22 - 2L - 320GR;;1;2;1,8;Aluminio;Fosco;Polido;Aluminio;;Baquelite;Baquelite;;0
es_ES;000001;213.jpg;FILTRO PARA ACEITE;;1;2;1,2;Aluminio;Fosco;Polido;Aluminio;0;Baquelite;Baquelite;;0
es_ES;000001;462,jpg;MOLDE PARA PAN CASERO EIRIFLON;;1;2;1;Aluminio;Antiaderente;Preto;;0;;;;0
es_ES;462;462,jpg;MOLDE PARA PAN CASERO EIRIFLON GRANDE - 6X 13 X 32,5 - 1,5L - 225 GR;;1;2;1;Aluminio;Antiaderente;Preto;;0;;;;0
es_ES;383;462,jpg;MOLDE PARA PAN CASERO EIRIFLON PEQ - 5,5X 12X 29 - 1L - 225 GR;;1;2;1;Aluminio;Antiaderente;Preto;;0;;;;0
es_ES;000001;461,jpg;MOLDE PARA PAN CASERO POLIDA ;;1;2;1;Aluminio;Fosco;Fosco;;0;;;;0
es_ES;461;461,jpg;MOLDE PARA PAN CASERO POLIDA GRANDE - 6X 13X 32 - 1,5L - 235 GR ;;1;2;1;Aluminio;Fosco;Fosco;;0;;;;0
es_ES;136;461,jpg;MOLDE PARA PAN CASERO POLIDA PEQUEÑO - 6X 12X 29 - 1,0L - 175 GR;;1;2;1;Aluminio;Fosco;Fosco;;0;;;;0
es_ES;000001;334,jpg;MOLDE PARA PIZZA CRUJIENTE 35;;1;2;1;Aluminio;Fosco;Fosco;;0;;;;0
es_ES;000001;135.jpg;MOLDE PARA BUDÍN BAÑO MARÍA;;1;2;1,2;Aluminio;Fosco;Polido;Aluminio;0;;Baquelite;Baquelite;0
es_ES;000001;277,jpg;MOLDE PARA BUDÍN EIRIFLON 18 ESPECIAL;;1;2;1;Aluminio;Antiaderente;Preto;;0;;;;0
es_ES;000001;391,jpg;MOLDE PARA BUDÍN SIN TAPA;;1;2;1;Aluminio;Fosco;Polido;;0;;;;0
es_ES;391;391,jpg;MOLDE PARA BUDÍN SIN TAPA 20 - 6,5X 0X 20 - 1,35L - 160GR;;1;2;1;Aluminio;Fosco;Polido;;0;;;;0
es_ES;132;391,jpg;MOLDE PARA BUDÍN SIN TAPA 22 - 6,5X 22 X 22 - 1,45L - 210 GR;;1;2;1;Aluminio;Fosco;Polido;;0;;;;0
es_ES;392;391,jpg;MOLDE PARA BUDÍN SIN TAPA 24 - 6,5X 24X 24 - 1,9L -235 GR;;1;2;1;Aluminio;Fosco;Polido;;0;;;;0
es_ES;000001;131,jpg;MOLDE PARA BUDÍN TRADICIONAL;;1;2;1;Aluminio;Fosco;Polido;;0;;;;0
es_ES;131;131,jpg;MOLDE PARA BUDÍN TRADICIONAL18 - 7X 18X 18 - 1,3L 128GR ;;1;2;1;Aluminio;Fosco;Polido;;0;;;;0
es_ES;1162;131,jpg;MOLDE PARA BUDÍN TRADICIONAL 20 - 8X 20X 20 - 1,8L - 160 GR ;;1;2;1;Aluminio;Fosco;Polido;;0;;;;0
es_ES;1163;131,jpg;MOLDE PARA BUDÍN TRADICIONAL 22 - 9X 22X 22 - 2,5L - 182GR ;;1;2;1;Aluminio;Fosco;Polido;;0;;;;0
es_ES;1164;131,jpg;MOLDE PARA BUDÍN TRADICIONAL 24 - 10X 24X 24 - 3,3L - 232GR;;1;2;1;Aluminio;Fosco;Polido;;0;;;;0
es_ES;000001;1230.jpg;MOLDE PARA PIZZA CRUJIENTE EIRIFLON ;;1;2;1;Aluminio;Antiaderente;Preto;;0;;;;0
es_ES;1230;1230.jpg;MOLDE PARA PIZZA CRUJIENTE EIRIFLON 35 - 1,5X 35X 35 - 1L - 264GR ;;1;2;1;Aluminio;Antiaderente;Preto;;0;;;;0
es_ES;1231;1230.jpg;MOLDE PARA PIZZA EIRIFLON 35 - 1,5X 35X 35 - 1L - 338GR;;1;2;1;Aluminio;Antiaderente;Preto;;0;;;;0
es_ES;000001;847,jpg;SARTÉN ALTA EIRIFLON CON MANIJA;;1;2;3.0;Aluminio;Antiaderente;Preto;Vidro;1;;Baquelite;Baquelite;0
es_ES;847;847,jpg;SARTÉN ALTA EIRIFLON CON MANIJA 20 - 6X 20X 34 - 1,5L - 980GR ;;1;2;3.0;Aluminio;Antiaderente;Preto;Vidro;1;;Baquelite;Baquelite;0
es_ES;848;847,jpg;SARTÉN ALTA EIRIFLON CON MANIJA 22 - 6,5X 22X 36 - 2L - 1.140K ;;1;2;3.0;Aluminio;Antiaderente;Preto;Vidro;1;;Baquelite;Baquelite;0
es_ES;849;847,jpg;SARTÉN ALTA EIRIFLON CON MANIJA 24 - 6,5X 24X 38 - 2,5L - 1.304K;;1;2;3.0;Aluminio;Antiaderente;Preto;Vidro;1;;Baquelite;Baquelite;0
es_ES;000001;831,jpg;SARTÉN ALTA RED CON MANIJA;;1;2;3.0;Aluminio;Antiaderente;Vermelho;Vidro;1;;Baquelite;Baquelite;0
es_ES;831;831,jpg;SARTÉN ALTA RED CON MANIJA 20 - 6X 20X 34 - 1,5L - 980GR;;1;2;3.0;Aluminio;Antiaderente;Vermelho;Vidro;1;;Baquelite;Baquelite;0
es_ES;832;831,jpg;SARTÉN ALTA RED CON MANIJA 22 - 6,5X 22X 36 - 2L - 1.140K;;1;2;3.0;Aluminio;Antiaderente;Vermelho;Vidro;1;;Baquelite;Baquelite;0
es_ES;833;831,jpg;SARTÉN ALTA RED CON MANIJA 24 - 6,5X 24X 38 - 2,5L - 1.304K;;1;2;3.0;Aluminio;Antiaderente;Vermelho;Vidro;1;;Baquelite;Baquelite;0
es_ES;000001;509,jpg;SARTÉN BLACK WHITE;;1;2;2;Aluminio;Antiaderente;Polido;;0;Baquelite;;;0
es_ES;509;509,jpg;SARTÉN BLACK WHITE 28 - 5,5X 28X 55 - 2,7L - 704GR ;;1;2;2;Aluminio;Antiaderente;Polido;;0;Baquelite;;;0
es_ES;510;509,jpg;SARTÉN BLACK WHITE 30 - 5,5X 30X 57 - 3,3L 760GR ;;1;2;2;Aluminio;Antiaderente;Polido;;0;Baquelite;;;0
es_ES;511;509,jpg;SARTÉN BLACK WHITE 32 - 6,5X 32X 59 - 4L - 848GR ;;1;2;2;Aluminio;Antiaderente;Polido;;0;Baquelite;;;0
es_ES;512;509,jpg;SARTÉN BLACK WHITE 34- 7X 34X 60 - 5L - 962 GR;;1;2;2;Aluminio;Antiaderente;Polido;;0;Baquelite;;;0
es_ES;000001;275,jpg;SARTÉN EIRIFLON SIN TAPA ESPECIAL;;1;2;1,2;Aluminio;Antiaderente;Preto;;0;Baquelite;;;0
es_ES;275;275,jpg;SARTÉN EIRIFLON SIN TAPA ESPECIAL 18 - 4,5X 18X 34 - 1L - 185GR ;;1;2;1,2;Aluminio;Antiaderente;Preto;;0;Baquelite;;;0
es_ES;276;275,jpg;SARTÉN EIRIFLON SIN TAPA ESPECIAL 20 - 4,5X 20X 36 - 1,2L - 205GR ;;1;2;1,2;Aluminio;Antiaderente;Preto;;0;Baquelite;;;0
es_ES;506;275,jpg;SARTÉN EIRIFLON SIN TAPA ESPECIAL 24 - 4,5X 25X 40 - 1,4L - 270GR ;;1;2;1,2;Aluminio;Antiaderente;Preto;;0;Baquelite;;;0
es_ES;604;275,jpg;SARTÉN EIRIFLON SIN TAPA ESPECIAL 22 - 4,5X 22X 38 - 1,4L 235GR;;1;2;1,2;Aluminio;Antiaderente;Preto;;0;Baquelite;;;0
es_ES;000001;123,jpg;SARTÉN ESPECIAL SIN TAPA;;1;2;1,2;Aluminio;Fosco;Polido;;0;Baquelite;;;0
es_ES;123;123,jpg;SARTÉN ESPECIAL SIN TAPA 18 - 4,5X 18X 34 - 1L -185GR;;1;2;1,2;Aluminio;Fosco;Polido;;0;Baquelite;;;0
es_ES;124;123,jpg;SARTÉN ESPECIAL SIN TAPA 20 - 4,5X 20X 36 - 1,2L - 205 GR;;1;2;1,2;Aluminio;Fosco;Polido;;0;Baquelite;;;0
es_ES;125;123,jpg;SARTÉN ESPECIAL SIN TAPA 22 - 4,5X 22X 38 - 1,4L - 240 GR;;1;2;1,2;Aluminio;Fosco;Polido;;0;Baquelite;;;0
es_ES;126;123,jpg;SARTÉN ESPECIAL SIN TAPA 24 - 4,5X 24X 40 - 1,6L - 270GR;;1;2;1,2;Aluminio;Fosco;Polido;;0;Baquelite;;;0
es_ES;000001;499,jpg;FRIGIDEIRA FRANCESA EIRIFLON;;1;2;1,8;Aluminio;Antiaderente;Preto;;0;Baquelite;;;0
es_ES;499;499,jpg;FRIGIDEIRA FRANCESA EIRIFLON 18 - 3,5X 18X 32 - 0,4L – 204GR;;1;2;1,8;Aluminio;Antiaderente;Preto;;0;Baquelite;;;0
es_ES;500;499,jpg;FRIGIDEIRA FRANCESA EIRIFLON  20 - 3,5X 20X 34 - 0,6L – 258GR;;1;2;1,8;Aluminio;Antiaderente;Preto;;0;Baquelite;;;0
es_ES;501;499,jpg;FRIGIDEIRA FRANCESA EIRIFLON  22 - 3,5X 22X 36 - 0,8L - 272 GR;;1;2;1,8;Aluminio;Antiaderente;Preto;;0;Baquelite;;;0
es_ES;502;499,jpg;FRIGIDEIRA FRANCESA EIRIFLON  24 - 4X 24X 38 - 1L - 294 GR;;1;2;1,8;Aluminio;Antiaderente;Preto;;0;Baquelite;;;0
es_ES;503;499,jpg;FRIGIDEIRA FRANCESA EIRIFLON  26 - 4X 26X 42 - 1,2L - 332 GR;;1;2;1,8;Aluminio;Antiaderente;Preto;;0;Baquelite;;;0
es_ES;504;499,jpg;FRIGIDEIRA FRANCESA EIRIFLON  28 - 4,5X 28X 44 - 1,4L - 372 GR;;1;2;1,8;Aluminio;Antiaderente;Preto;;0;Baquelite;;;0
es_ES;505;499,jpg;FRIGIDEIRA FRANCESA EIRIFLON  30 - 4,5X 30X 46 - 1,6 - 450 GR;;1;2;1,8;Aluminio;Antiaderente;Preto;;0;Baquelite;;;0
es_ES;000001;223.jpg;SARTÉN FRANCESA ESPECIAL AA;;1;2;1,2;Aluminio;Antiaderente;Preto;;0;Baquelite;;;0
es_ES;223;223.jpg;SARTÉN FRANCESA ESPECIAL AA 20 - 3,5X 20X 34X - 0,6L -154GR;;1;2;1,2;Aluminio;Antiaderente;Preto;;0;Baquelite;;;0
es_ES;497;223.jpg;SARTÉN FRANCESA ESPECIAL AA 22- 3,5X 22X 38X - 0,8 – 160GR;;1;2;1,2;Aluminio;Antiaderente;Preto;;0;Baquelite;;;0
es_ES;324;223.jpg;SARTÉN FRANCESA ESPECIAL AA 24 - 3,5X 24X 38X - 1L- 200GR;;1;2;1,2;Aluminio;Antiaderente;Preto;;0;Baquelite;;;0
es_ES;000001;0;SARTÉN FRANCESA ESPECIAL RED;;1;2;1,2;Aluminio;Antiaderente;Vermelho;;0;Baquelite;;;0
es_ES;1218;0;SARTÉN FRANCESA ESPECIAL RED 20 - 3,5X 20X 34 - 0,6L - 154 GR;;1;2;1,2;Aluminio;Antiaderente;Vermelho;;0;Baquelite;;;0
es_ES;1219;0;SARTÉN FRANCESA ESPECIAL RED 22 - 3,5X 22X 36 - 0,8L – 160GR;;1;2;1,2;Aluminio;Antiaderente;Vermelho;;0;Baquelite;;;0
es_ES;1220;0;SARTÉN FRANCESA ESPECIAL RED 24 - 3,5X 24X 38 - 1L – 200GR;;1;2;1,2;Aluminio;Antiaderente;Vermelho;;0;Baquelite;;;0
es_ES;000001;700.jpg;SARTÉN FRANCESA RED;;1;2;1,8;Aluminio;Antiaderente;Vermelho;;0;Baquelite;;;0
es_ES;700;700.jpg;SARTÉN FRANCESA RED 18 - 3,5X 18X 32 - 0,4L – 100GR;;1;2;1,8;Aluminio;Antiaderente;Vermelho;;0;Baquelite;;;0
es_ES;701;700.jpg;SARTÉN FRANCESA RED 20 - 3,5X 20X 34 - 0,6L 154 GR;;1;2;1,8;Aluminio;Antiaderente;Vermelho;;0;Baquelite;;;0
es_ES;703;700.jpg;SARTÉN FRANCESA RED 24 - 3,5X 24X 38 - 1L - 294 GR;;1;2;1,8;Aluminio;Antiaderente;Vermelho;;0;Baquelite;;;0
es_ES;704;700.jpg;SARTÉN FRANCESA RED 26 - 4X 26X 42 - 1,2L - 332 GR;;1;2;1,8;Aluminio;Antiaderente;Vermelho;;0;Baquelite;;;0
es_ES;702;700.jpg;SARTÉN FRANCESA RED 22 - 3,5X 22X 36 - 0,8L - 272 GR;;1;2;1,8;Aluminio;Antiaderente;Vermelho;;0;Baquelite;;;0
es_ES;000001;1169.jpg;SARTÉN GOURMET RED;;1;2;1,8;Aluminio;Antiaderente;Vermelho;;0;Baquelite;;;0
es_ES;1169;1169.jpg;SARTÉN GOURMET RED 30 - 5X 30X 53X 3,3L - 400GR;;1;2;1,8;Aluminio;Antiaderente;Vermelho;;0;Baquelite;;;0
es_ES;000001;219.jpg;SARTÉN L L CLARITY EIRIF CON TAPA;;1;2;3;Aluminio;Antiaderente;Preto;Vidro;1;Baquelite;Baquelite;;0
es_ES;219;219.jpg;SARTÉN L L CLARITY EIRIF CON TAPA 20 - 5,5X 20X 37,5 - 1,4L – 954GR;;1;2;3;Aluminio;Antiaderente;Preto;Vidro;1;Baquelite;Baquelite;;0
es_ES;639;219.jpg;SARTÉN L L CLARITY EIRIF CON TAPA 24 - 5,5X 24X 0 - 2,2L – 1.274K;;1;2;3;Aluminio;Antiaderente;Preto;Vidro;1;Baquelite;Baquelite;;0
es_ES;000001;766,jpg;SARTÉN L L CLARITY RED CON TAPA;;1;2;3;Aluminio;Antiaderente;Vermelho;Vidro;1;Baquelite;Baquelite;;0
es_ES;766;766,jpg;SARTÉN L L CLARITY RED CON TAPA 20 - 5,5X 20X 37 - 1,4L – 936GR;;1;2;3;Aluminio;Antiaderente;Vermelho;Vidro;1;Baquelite;Baquelite;;0
es_ES;767;766,jpg;SARTÉN L L CLARITY RED CON TAPA 22 - 5,5X 22X 39 - 1,6L – 1.086K;;1;2;3;Aluminio;Antiaderente;Vermelho;Vidro;1;Baquelite;Baquelite;;0
es_ES;768;766,jpg;SARTÉN L L CLARITY RED CON TAPA 24 - 5,5X 24X 42 - 2,2L – 1.346K;;1;2;3;Aluminio;Antiaderente;Vermelho;Vidro;1;Baquelite;Baquelite;;0
es_ES;000001;546.jpg;SARTÉN LÍNEA HOTEL;;1;2;2,3;Aluminio;Fosco;Fosco;;0;Baquelite;;Alumínio;0
es_ES;546;546.jpg;SARTÉN LÍNEA HOTEL 28 - 6X 28X 55 - 2,5L – 0,795GR;;1;2;2,3;Aluminio;Fosco;Fosco;;0;Baquelite;;Alumínio;0
es_ES;547;546.jpg;SARTÉN LÍNEA HOTEL 30 - 6X 30X63 - 3L - 875 GR;;1;2;2,3;Aluminio;Fosco;Fosco;;0;Baquelite;;Alumínio;0
es_ES;548;546.jpg;SARTÉN LÍNEA HOTEL 32 - 6X 32X 64 - 3,5L – 960GR;;1;2;2,3;Aluminio;Fosco;Fosco;;0;Baquelite;;Alumínio;0
es_ES;549;546.jpg;SARTÉN LÍNEA HOTEL 34 - 7X 34X 65 - 4,5L – 1.020K;;1;2;2,3;Aluminio;Fosco;Fosco;;0;Baquelite;;Alumínio;0
es_ES;31;546.jpg;SARTÉN LÍNEA HOTEL 36 - 7X 36X 68 - 5,5L - 1.175 K;;1;2;2,3;Aluminio;Fosco;Fosco;;0;Baquelite;;Alumínio;0
es_ES;32;546.jpg;SARTÉN LÍNEA HOTEL 38 - 7X 38X 71 - 6,5 – 1.300K;;1;2;2,3;Aluminio;Fosco;Fosco;;0;Baquelite;;Alumínio;0
es_ES;42;546.jpg;SARTÉN LÍNEA HOTEL 40 - 7X 40X 73 - 7L - 1.525K ;;1;2;2,3;Aluminio;Fosco;Fosco;;0;Baquelite;;Alumínio;0
es_ES;71;546.jpg;SARTÉN LÍNEA HOTEL 45 - 8X 45X 78 - 11L – 1.640K;;1;2;2,3;Aluminio;Fosco;Fosco;;0;Baquelite;;Alumínio;0
es_ES;83;546.jpg;SARTÉN LÍNEA HOTEL 50 - 10X 50X 82 - 13L 2.130K;;1;2;2,3;Aluminio;Fosco;Fosco;;0;Baquelite;;Alumínio;0
es_ES;000001;540.jpg;SARTÉN LONG LIFE CON TAPA;;1;2;3;Aluminio;Fosco;Polido;Vidro;1;Baquelite;Baquelite;;0
es_ES;540;540.jpg;SARTÉN LONG LIFE CON TAPA 18 - 5X 18,5X 35,5 - 1,2L – 0,648GR;;1;2;3;Aluminio;Fosco;Polido;Vidro;1;Baquelite;Baquelite;;0
es_ES;541;540.jpg;SARTÉN LONG LIFE CON TAPA 20 - 5X 20,5X 38 - 1,4L – 0,708GR;;1;2;3;Aluminio;Fosco;Polido;Vidro;1;Baquelite;Baquelite;;0
es_ES;542;540.jpg;SARTÉN LONG LIFE CON TAPA 22 - 5X 22X  40 - 1,6L – 0,816GR;;1;2;3;Aluminio;Fosco;Polido;Vidro;1;Baquelite;Baquelite;;0
es_ES;543;540.jpg;SARTÉN LONG LIFE CON TAPA 24 - 5X 24,5 42 - 2,2L – 0,952GR;;1;2;3;Aluminio;Fosco;Polido;Vidro;1;Baquelite;Baquelite;;0
es_ES;544;540.jpg;SARTÉN LONG LIFE CON TAPA 26 - 5X 26,5X 50 - 2,5L 1.128K;;1;2;3;Aluminio;Fosco;Polido;Vidro;1;Baquelite;Baquelite;;0
es_ES;588;540.jpg;SARTÉN LONG LIFE CON TAPA 28 - 5X 28,5X 54 - 3,1L – 1.290K;;1;2;3;Aluminio;Fosco;Polido;Vidro;1;Baquelite;Baquelite;;0
es_ES;589;540.jpg;SARTÉN LONG LIFE CON TAPA 30 - 5X 30,5X 56 - 3,4L – 1.354K;;1;2;3;Aluminio;Fosco;Polido;Vidro;1;Baquelite;Baquelite;;0
es_ES;000001;579.jpg;SARTÉN LONG LIFE EIRIFLON CON TAPA;;1;2;3.0;Aluminio;Antiaderente;Preto;Vidro;1;Baquelite;Baquelite;;0
es_ES;579;579.jpg;SARTÉN LONG LIFE EIRIFLON CON TAPA 18 - 5X 18X 35 - 1,2L – 0,638GR;;1;2;3.0;Aluminio;Antiaderente;Preto;Vidro;1;Baquelite;Baquelite;;0
es_ES;580;579.jpg;SARTÉN LONG LIFE EIRIFLON CON TAPA 20 - 5X 20X 38 - 1,4L – 0,724GR;;1;2;3.0;Aluminio;Antiaderente;Preto;Vidro;1;Baquelite;Baquelite;;0
es_ES;581;579.jpg;SARTÉN LONG LIFE EIRIFLON CON TAPA 22 - 5X 22X 40 - 1,6L – 0,810GR;;1;2;3.0;Aluminio;Antiaderente;Preto;Vidro;1;Baquelite;Baquelite;;0
es_ES;582;579.jpg;SARTÉN LONG LIFE EIRIFLON CON TAPA 24 - 5X 24X 42 - 2,2L - 0,916 GR;;1;2;3.0;Aluminio;Antiaderente;Preto;Vidro;1;Baquelite;Baquelite;;0
es_ES;583;579.jpg;SARTÉN LONG LIFE EIRIFLON CON TAPA 26 - 6X 26X 50 - 2,5L – 1.126K;;1;2;3.0;Aluminio;Antiaderente;Preto;Vidro;1;Baquelite;Baquelite;;0
es_ES;584;579.jpg;SARTÉN LONG LIFE EIRIFLON CON TAPA 28 - 6X 28X 54 - 3,1L – 1.282K;;1;2;3.0;Aluminio;Antiaderente;Preto;Vidro;1;Baquelite;Baquelite;;0
es_ES;585;579.jpg;SARTÉN LONG LIFE EIRIFLON CON TAPA 30 - 6X 30X 56 - 3,4L – 1.370K;;1;2;3.0;Aluminio;Antiaderente;Preto;Vidro;1;Baquelite;Baquelite;;0
es_ES;000001;527,jpg;SARTÉN LONG LIFE EIRIFLON SIN TAPA;;1;2;3.0;Aluminio;Antiaderente;Preto;;0;Baquelite;;;0
es_ES;572;527,jpg;SARTÉN LONG LIFE EIRIFLON SIN TAPA 18 - 5X 18X 35 - 1,2L -0,476GR;;1;2;3.0;Aluminio;Antiaderente;Preto;;0;Baquelite;;;0
es_ES;573;527,jpg;SARTÉN LONG LIFE EIRIFLON SIN TAPA 20 - 5X  20X 38 - 1,4L – 0,538GR;;1;2;3.0;Aluminio;Antiaderente;Preto;;0;Baquelite;;;0
es_ES;574;527,jpg;SARTÉN LONG LIFE EIRIFLON SIN TAPA 22 - 5X 22X 40 - 1,6L – 0,594GR;;1;2;3.0;Aluminio;Antiaderente;Preto;;0;Baquelite;;;0
es_ES;575;527,jpg;SARTÉN LONG LIFE EIRIFLON SIN TAPA 24 - 5X 24X 42 - 2,2L – 0,684GR;;1;2;3.0;Aluminio;Antiaderente;Preto;;0;Baquelite;;;0
es_ES;576;527,jpg;SARTÉN LONG LIFE EIRIFLON SIN TAPA 26 - 5X 26X 50 - 2,5L – 0,812GR;;1;2;3.0;Aluminio;Antiaderente;Preto;;0;Baquelite;;;0
es_ES;577;527,jpg;SARTÉN LONG LIFE EIRIFLON SIN TAPA 28 - 5X 28X 54 - 3,1L – 0,930GR;;1;2;3.0;Aluminio;Antiaderente;Preto;;0;Baquelite;;;0
es_ES;578;527,jpg;SARTÉN LONG LIFE EIRIFLON SIN TAPA 30- 5X 30X 56 - 3,4L – 1.004K;;1;2;3.0;Aluminio;Antiaderente;Preto;;0;Baquelite;;;0
es_ES;000001;205.jpg;SARTÉN LONG LIFE SIN TAPA;;1;2;3.0;Aluminio;Fosco;Polido;;0;Baquelite;;;0
es_ES;205;205.jpg;SARTÉN LONG LIFE SIN TAPA 18 - 5X 18X 35 - 1,2L – 0,470GR;;1;2;3.0;Aluminio;Fosco;Polido;;0;Baquelite;;;0
es_ES;206;205.jpg;SARTÉN LONG LIFE SIN TAPA 20 - 5X 20X 36 - 1,4L – 0,545GR;;1;2;3.0;Aluminio;Fosco;Polido;;0;Baquelite;;;0
es_ES;207;205.jpg;SARTÉN LONG LIFE SIN TAPA 22 - 5X 22X 38 - 1,6L – 0,600GR;;1;2;3.0;Aluminio;Fosco;Polido;;0;Baquelite;;;0
es_ES;000001;389,jpg;SARTÉN LONG LIFE SIN TAPA;;1;2;3.0;Aluminio;Fosco;Polido;;0;Baquelite;;;0
es_ES;389;389,jpg;SARTÉN LONG LIFE SIN TAPA 26 - 6X 26X 51 - 2,5L – 0,850GR;;1;2;3.0;Aluminio;Fosco;Polido;;0;Baquelite;;;0
es_ES;586;389,jpg;SARTÉN LONG LIFE SIN TAPA 28 - 6X 28X 53 - 3,1L – 0,965GR;;1;2;3.0;Aluminio;Fosco;Polido;;0;Baquelite;;;0
es_ES;587;389,jpg;SARTÉN LONG LIFE SIN TAPA 30 - 6X 30X 55 - 3,4L – 1.000K;;1;2;3.0;Aluminio;Fosco;Polido;;0;Baquelite;;;0
es_ES;000001;880,jpg;SARTÉN NOBLE CON TAPA;;1;2;1,5;Aluminio;Fosco;Polido;Aluminio;1;Baquelite;;;0
es_ES;880;880,jpg;SARTÉN NOBLE CON TAPA 18 - 4,5X 18X 33 - 1L – 0,435GR;;1;2;1,5;Aluminio;Fosco;Polido;Aluminio;1;Baquelite;;;0
es_ES;881;880,jpg;SARTÉN NOBLE CON TAPA 20 - 4,5X 20X 36 - 1,2L – 0,510GR;;1;2;1,5;Aluminio;Fosco;Polido;Aluminio;1;Baquelite;;;0
es_ES;882;880,jpg;SARTÉN NOBLE CON TAPA 22 - 4,5X 22X 37 - 1,5L – 0,555GR;;1;2;1,5;Aluminio;Fosco;Polido;Aluminio;1;Baquelite;;;0
es_ES;883;880,jpg;SARTÉN NOBLE CON TAPA 24 - 4,5X 24X 39 - 1,7L – 0,625GR;;1;2;1,5;Aluminio;Fosco;Polido;Aluminio;1;Baquelite;;;0
es_ES;000001;1242,jpg;SARTÉN NOBLE EIRIFLON CON TAPA;;1;2;1,5;Aluminio;Antiaderente;Preto;Aluminio;1;Baquelite;;;0
es_ES;1242;1242,jpg;SARTÉN NOBLE EIRIFLON CON TAPA 18 - 4,5X 18X 33 - 1L – 0,445GR;;1;2;1,5;Aluminio;Antiaderente;Preto;Aluminio;1;Baquelite;;;0
es_ES;1243;1242,jpg;SARTÉN NOBLE EIRIFLON CON TAPA 20 - 4,5X 20X 36 - 1,2L – 0,515GR;;1;2;1,5;Aluminio;Antiaderente;Preto;Aluminio;1;Baquelite;;;0
es_ES;1244;1242,jpg;SARTÉN NOBLE EIRIFLON CON TAPA 22 - 4,5X 22X 37 - 1,5L – 0,575GR;;1;2;1,5;Aluminio;Antiaderente;Preto;Aluminio;1;Baquelite;;;0
es_ES;1245;1242,jpg;SARTÉN NOBLE EIRIFLON CON TAPA 24 -  4,5X 24X 39 - 1,7L – 0,620GR;;1;2;1,5;Aluminio;Antiaderente;Preto;Aluminio;1;Baquelite;;;0
es_ES;1256;1242,jpg;SARTÉN NOBLE EIRIFLON CON TAPA 26 - 4,5X 26X 42 - 1,9L – 0,765GR;;1;2;1,5;Aluminio;Antiaderente;Preto;Aluminio;1;Baquelite;;;0
es_ES;000001;243,jpg;SARTÉN NOBLE EIRIFLON SIN TAPA;;1;2;1,5;Aluminio;Antiaderente;Preto;;0;Baquelite;;;0
es_ES;243;243,jpg;SARTÉN NOBLE EIRIFLON SIN TAPA - 20 - 4,5X 20X 36 - 1,2L – 0,300GR;;1;2;1,5;Aluminio;Antiaderente;Preto;;0;Baquelite;;;0
es_ES;244;243,jpg;SARTÉN NOBLE EIRIFLON SIN TAPA - 22 - 4,5X 22X 37 - 1,5L  - 0,340GR;;1;2;1,5;Aluminio;Antiaderente;Preto;;0;Baquelite;;;0
es_ES;245;243,jpg;SARTÉN NOBLE EIRIFLON SIN TAPA - 24 - 4,5X 24X 39 - 1,7L – 0,380GR;;1;2;1,5;Aluminio;Antiaderente;Preto;;0;Baquelite;;;0
es_ES;242;243,jpg;SARTÉN NOBLE EIRIFLON SIN TAPA - 18 - 4,5X 18X 33 - 1L – 0,275GR;;1;2;1,5;Aluminio;Antiaderente;Preto;;0;Baquelite;;;0
es_ES;000001;153,jpg;SARTÉN NOBLE RED CON TAPA;;1;2;1,5;Aluminio;Antiaderente;Vermelho;Vidro;1;Baquelite;;;0
es_ES;153;153,jpg;SARTÉN NOBLE RED CON TAPA 18 - 4,5X 18X 33 - 1L – 0,445GR;;1;2;1,5;Aluminio;Antiaderente;Vermelho;Vidro;1;Baquelite;;;0
es_ES;154;153,jpg;SARTÉN NOBLE RED CON TAPA 20 - 4,5X 20X 36 - 1,2L – 0,515GR;;1;2;1,5;Aluminio;Antiaderente;Vermelho;Vidro;1;Baquelite;;;0
es_ES;157;153,jpg;SARTÉN NOBLE RED CON TAPA 22 - 4,5X 22X 37 - 1,5L – 0,195GR;;1;2;1,5;Aluminio;Antiaderente;Vermelho;Vidro;1;Baquelite;;;0
es_ES;158;153,jpg;SARTÉN NOBLE RED CON TAPA 24 - 4,5X 24X 39 - 1,7L – 0,270GR;;1;2;1,5;Aluminio;Antiaderente;Vermelho;Vidro;1;Baquelite;;;0
es_ES;000001;67,jpg;SARTÉN NOBLE SIN TAPA;;1;2;1,5;Aluminio;Fosco;Polido;;0;Baquelite;;;0
es_ES;673;67,jpg;SARTÉN NOBLE SIN TAPA 18- 4,5X 18X 33 - 1L – 0,260GR;;1;2;1,5;Aluminio;Fosco;Polido;;0;Baquelite;;;0
es_ES;680;67,jpg;SARTÉN NOBLE SIN TAPA 20  - 4,5X 20X 36 - 1,2L- 0,290GR;;1;2;1,5;Aluminio;Fosco;Polido;;0;Baquelite;;;0
es_ES;69;67,jpg;SARTÉN NOBLE SIN TAPA 22 - 4,5X 22X 37 - 1,5L- 0,345GR;;1;2;1,5;Aluminio;Fosco;Polido;;0;Baquelite;;;0
es_ES;70;67,jpg;SARTÉN NOBLE SIN TAPA 24 - 4,5X 24X 39 - 1,7L – 0,375GR;;1;2;1,5;Aluminio;Fosco;Polido;;0;Baquelite;;;0
es_ES;000001;674.jpg;SARTÉN PARA HUEVOS;;1;2;1;Aluminio;Antiaderente;Preto;;0;Baquelite;;;0
es_ES;674;674.jpg;SARTÉN PARA HUEVOS - 2,5X 14X 27 - 0,2L – 0,102GR;;1;2;1;Aluminio;Antiaderente;Preto;;0;Baquelite;;;0
es_ES;000001;1151.jpg;SARTÉN SQUARE A.A;;1;2;3;Aluminio;Antiaderente;Preto;;;;;;
es_ES;1151;1151.jpg;SARTÉN SQUARE A.A CON MANIJA - 7,5 X 28 X 38 - 4L – 1800K;;1;2;3;Aluminio;Antiaderente;Preto;Vidro;1;Borracha;Baquelite;Borracha;0
es_ES;1152;1151.jpg;SARTÉN SQUARE A.A CON MANGO - 7,5 X 28 X 38 - 4L – 1800K;;1;2;3;Aluminio;Antiaderente;Preto;Vidro;1;Borracha;Baquelite;Borracha;0
es_ES;000001;445,jpg;SARTÉN SQUARE RED CON MANIJA;;1;2;3;Aluminio;Antiaderente;Vermelho;Vidro;1;Borracha;Baquelite;Borracha;0
es_ES;445;445,jpg;SARTÉN SQUARE RED CON MANIJA - 7,5 X 28 X 38 - 4L – 1800K;;1;2;3;Aluminio;Antiaderente;Vermelho;Vidro;1;Borracha;Baquelite;Borracha;0
es_ES;446;445,jpg;SARTÉN SQUARE RED CON MANIJA - 7,5 X 28 X 38 - 4L – 1800K;;1;2;3;Aluminio;Antiaderente;Vermelho;Vidro;1;Borracha;Baquelite;Borracha;0
es_ES;000001;1153.jpg;SARTÉN WOK EIRIFLON CON TAPA;;1;2;3;Aluminio;Antiaderente;Preto;Aluminio;1;;Baquelite;Baquelite;0
es_ES;1153;1153.jpg;SARTÉN WOK EIRIFLON CON TAPA - 10 X 32 X 46 - 5L – 1000K;;1;2;3;Aluminio;Antiaderente;Preto;Aluminio;1;;Baquelite;Baquelite;0
es_ES;1423;1153.jpg;SARTÉN WOK EIRIFLON CON TAPA - 9,5 X 28 X 54 - 4,4 – 1334K;;1;2;3;Aluminio;Antiaderente;Preto;Aluminio;1;;Baquelite;Baquelite;0
es_ES;000001;1425.jpg;SARTÉN WOK EIRIFLON CON TAPA MANIJA;;1;2;3;Aluminio;Antiaderente;Preto;Aluminio;1;;Baquelite;Baquelite;0
es_ES;1425;1425.jpg;SARTÉN WOK EIRIFLON CON TAPA MANIJA 36 - 12 X 36,5 X 50 - 9L – 2388K;;1;2;3;Aluminio;Antiaderente;Preto;Aluminio;1;;Baquelite;Baquelite;0
es_ES;1424;1425.jpg;SARTÉN WOK EIRIFLON CON TAPA MANIJA 28 - 9,5 X 28 X 42 - 4,4L – 1592K;;1;2;3;Aluminio;Antiaderente;Preto;Aluminio;1;;Baquelite;Baquelite;0
es_ES;000001;423,jpg;SARTÉN WOK EIRIFLON SIN TAPA 28;;1;2;3;Aluminio;Antiaderente;Preto;;0;;;Baquelite;0
es_ES;423;423,jpg;SARTÉN WOK EIRIFLON SIN TAPA 28 - 9,5 X 28 X 51 - 4,7L- 1004K;;1;2;3;Aluminio;Antiaderente;Preto;;0;;;Baquelite;0
es_ES;000001;0;SARTÉN WOK RED 28 CON MANIJA;;1;2;3;Aluminio;Antiaderente;Vermelho;Vidro;1;;Baquelite;Baquelite;0
es_ES;869;0;SARTÉN WOK RED 28 CON MANIJA 28 - 9,5 X 28 X 42 X 4,4L – 2000K;;1;2;3;Aluminio;Antiaderente;Vermelho;Vidro;1;;Baquelite;Baquelite;0
es_ES;000001;147.jpg;JARRA PULIDA;;1;2;1,2;Aluminio;Fosco;Polido;;0;Baquelite;;;0
es_ES;147;147.jpg;JARRA PULIDA 001 - 15 X 13 X 29 - 1,8L – 175GR;;1;2;1,2;Aluminio;Fosco;Polido;;0;Baquelite;;;0
es_ES;148;147.jpg;JARRA PULIDA 01 - 16 X 14 X 20 2,2L – 195GR;;1;2;1,2;Aluminio;Fosco;Polido;;0;Baquelite;;;0
es_ES;149;147.jpg;JARRA PULIDA 02 - 18 X 16 X 22 - 3,2L – 250GR;;1;2;1,2;Aluminio;Fosco;Polido;;0;Baquelite;;;0
es_ES;150;147.jpg;JARRA PULIDA 03 - 20 X 18 X 24 - 4,5 – 310GR;;1;2;1,2;Aluminio;Fosco;Polido;;0;Baquelite;;;0
es_ES;000001;331,jpg;JUEGO DE ASADERAS RECTANGULAR 02/03/04;;1;2;1;Aluminio;Fosco;Fosco;;0;;;;0
es_ES;331;331,jpg;JUEGO DE ASADERAS RECTANGULAR 02/03/04 - 5X32X45 – 1185GR;;1;2;1;Aluminio;Fosco;Fosco;;0;;;;0
es_ES;000001;659,jpg;JUEGO DE ASADERAS RECTANGULAR ALTA 2/3/4;;1;2;1;Aluminio;Fosco;Fosco;;0;;;;0
es_ES;659;659,jpg;JUEGO DE ASADERAS RECTANGULAR ALTA 2/3/4 - 7X32,5X45- 1330GR;;1;2;1;Aluminio;Fosco;Fosco;;0;;;;0
es_ES;000001;152,jpg;JUEGO BOTES PARA ALIMENTOS 5 PIEZAS;;1;2;1;Aluminio;Fosco;Polido;Aluminio;0;;Baquelite;;0
es_ES;152;152,jpg;JUEGO BOTES PARA ALIMENTOS 5 PIEZAS - 23,5 X 23 X 23 – 1894K;;1;2;1;Aluminio;Fosco;Polido;Aluminio;0;;Baquelite;;0
es_ES;000001;293.jpg;KIT PAPAS FRITAS;;1;2;1,2;Aluminio;Fosco;Polido;;0;Baquelite;;;0
es_ES;293;293.jpg;KIT PAPAS FRITAS - 8X22X48- 2,4L – 706GR;;1;2;1,2;Aluminio;Fosco;Polido;;0;Baquelite;;;0
es_ES;000001;1158.jpg;KIT PAPAS FRITAS EIRIFLON;;1;2;1,2;Aluminio;Antiaderente;Preto;;0;Baquelite;;;0
es_ES;1158;1158.jpg;KIT PAPAS FRITAS EIRIFLON -  8X22X48- 2,4L – 706GR;;1;2;1,2;Aluminio;Antiaderente;Preto;;0;Baquelite;;;0
es_ES;000001;1159.jpg;KIT PAPAS FRITAS RED;;1;2;1,2;Aluminio;Antiaderente;Vermelho;;0;Baquelite;;;0
es_ES;1159;1159.jpg;KIT PAPAS FRITAS RED -  8X22X48- 2,4L – 706GR;;1;2;1,2;Aluminio;Antiaderente;Vermelho;;0;Baquelite;;;0
es_ES;000001;155,jpg;GRASERA LÍNEA HOTEL CON MANIJA;;1;2;1,5;Aluminio;Fosco;Fosco;Aluminio;0;;Aluminio;Aluminio;0
es_ES;155;155,jpg;GRASERA LÍNEA HOTEL CON MANIJA - 27 X 30X 40 - 18L – 1260K;;1;2;1,5;Aluminio;Fosco;Fosco;Aluminio;0;;Aluminio;Aluminio;0
es_ES;82;155,jpg;GRASERA LÍNEA HOTEL CON MANIJA - 31 X 34 X 45 - 25L – 1615K;;1;2;1,5;Aluminio;Fosco;Fosco;Aluminio;0;;Aluminio;Aluminio;0
es_ES;156;155,jpg;GRASERA LÍNEA HOTEL CON MANIJA 35 X 38 X 49 - 36L – 2360K;;1;2;1,5;Aluminio;Fosco;Fosco;Aluminio;0;;Aluminio;Aluminio;0
es_ES;000001;214,jpg;COLADOR PARA LAVAR ARROZ;;1;2;1;Aluminio;Fosco;Fosco;;0;;;;0
es_ES;214;214,jpg;COLADOR PARA LAVAR ARROZ - 8,5 X 26 X 26 - 3L – 180GR;;1;2;1;Aluminio;Fosco;Fosco;;0;;;;0
es_ES;000001;163,jpg;LONCHERA ACERO INOXIDABLE 16;;1;2;0,9;Aluminio;Fosco;Polido;Aluminio;0;;;;0
es_ES;163;163,jpg;LONCHERA ACERO INOXIDABLE 16 16 - 7 X 16 X 16 - 1,5 – 180GR;;1;2;0,9;Aluminio;Fosco;Polido;Aluminio;0;;;;0
es_ES;000001;186,jpg;OLLA PARRILLA PARA HORNO MULTI GRILL PLUS 30;;1;2;1,2;Aluminio;Fosco;Polido;Aluminio;0;;;Baquelite;0
es_ES;186;186,jpg;OLLA PARRILLA PARA HORNO MULTI GRILL PLUS 30 - 4,5 x 32 x 44 x 2l – 1284gr;;1;2;1,2;Aluminio;Fosco;Polido;Aluminio;0;;;Baquelite;0
es_ES;000001;539,jpg;SARTÉN DOBLE PARA OMELETTE O TORTILLAS EIRIFLON;;1;2;1;Aluminio;Antiaderente;Preto;;0;Baquelite;;;0
es_ES;539;539,jpg;SARTÉN DOBLE PARA OMELETTE O TORTILLAS EIRIFLON 16 - 4 X 16 X 22 - 5O0ML – 365GR;;1;2;1;Aluminio;Antiaderente;Preto;;0;Baquelite;;;0
es_ES;220;539,jpg;SARTÉN DOBLE PARA OMELETTE O TORTILLAS EIRIFLON 20 - 4,5 X 20 X 33 -  1L – 400GR;;1;2;1;Aluminio;Antiaderente;Preto;;0;Baquelite;;;0
es_ES;000001;280,jpg;SARTÉN DOBLE PARA OMELETTE O TORTILLAS RED;;1;2;1;Aluminio;Antiaderente;Vermelho;;0;Baquelite;;;0
es_ES;280;280,jpg;SARTÉN DOBLE PARA OMELETTE O TORTILLAS RED 16 - 4X 16X 29 - 500ML – 365GR;;1;2;1;Aluminio;Antiaderente;Vermelho;;0;Baquelite;;;0
es_ES;260;280,jpg;SARTÉN DOBLE PARA OMELETTE O TORTILLAS RED 20 - 4,5X 20X 33 - 1L – 400GR;;1;2;1;Aluminio;Antiaderente;Vermelho;;0;Baquelite;;;0
es_ES;000001;472,jpg;OLLA DE PRESIÓN 4,05 EIRIFLON TAPA PULIDA;;1;2;1,8;Aluminio;Antiaderente;Preto;Aluminio;0;Baquelite;;Baquelite;1
es_ES;472;472,jpg;OLLA DE PRESIÓN 4,05 EIRIFLON TAPA PULIDA  - 14,5X 19,5X 38 - 4,05L – 1.610K;;1;2;1,8;Aluminio;Antiaderente;Preto;Aluminio;0;Baquelite;;Baquelite;1
es_ES;000001;522,jpg;PAELLERA BLACK WHITE;;1;2;2,2;Aluminio;Antiaderente;Polido;;0;;;Aluminio;0
es_ES;522;522,jpg;PAELLERA BLACK WHITE 28 - 5,5X 28X 37 - 2,7L – 584GR;;1;2;2,2;Aluminio;Antiaderente;Polido;;0;;;Aluminio;0
es_ES;523;522,jpg;PAELLERA BLACK WHITE 30 - 5,5X 30X 39 - 3,3L – 674GR;;1;2;2,2;Aluminio;Antiaderente;Polido;;0;;;Aluminio;0
es_ES;524;522,jpg;PAELLERA BLACK WHITE 32 - 6,5X 32X 41 - 4L – 746GR;;1;2;2,2;Aluminio;Antiaderente;Polido;;0;;;Aluminio;0
es_ES;525;522,jpg;PAELLERA BLACK WHITE 34 - 7X 34X 43 - 5L – 834GR;;1;2;2,2;Aluminio;Antiaderente;Polido;;0;;;Aluminio;0
es_ES;370;522,jpg;PAELLERA BLACK WHITE 45 - 3,5X 45X 52 - 7L 874GR;;1;2;2,2;Aluminio;Antiaderente;Polido;;0;;;Aluminio;0
es_ES;000001;386,jpg;OLLA DE PRESIÓN 10 LITROS PULIDA;;1;2;2,7;Aluminio;Fosco;Polido;Aluminio;0;Baquelite;;Baquelite;1
es_ES;386,jpg;386,jpg;OLLA DE PRESIÓN 10 LITROS PULIDA - 20,5X 26X 45 - 10L – 2.154K;;1;2;2,7;Aluminio;Fosco;Polido;Aluminio;0;Baquelite;;Baquelite;1
es_ES;000001;908,jpg;OLLA DE PRESIÓN;;1;2;0;Aluminio;Fosco;Polido;Aluminio;0;Baquelite;;Baquelite;1
es_ES;908;908,jpg;OLLA DE PRESIÓN 2,00LTS - 9X 19,5X 38 - 2L – 838GR;;1;2;0;Aluminio;Fosco;Polido;Aluminio;0;Baquelite;;Baquelite;1
es_ES;397;908,jpg;OLLA DE PRESIÓN 3,00 LTS - 10,5X 20,5X 39 - 3L - 946 GR;;1;2;0;Aluminio;Fosco;Polido;Aluminio;0;Baquelite;;Baquelite;1
es_ES;306;908,jpg;OLLA DE PRESIÓN 7,00 LTS - 18,5X 22,5X 42 - 7L -  1.940GR;;1;2;0;Aluminio;Fosco;Polido;Aluminio;0;Baquelite;;Baquelite;1
es_ES;000001;399,jpg;OLLA DE PRESIÓN EIRIF NEW LINE 4,5;;1;2;2,3;Aluminio;Antiaderente;Preto;Aluminio;0;Baquelite;;Baquelite;1
es_ES;399;399,jpg;OLLA DE PRESIÓN EIRIF NEW LINE 4,5 - 15X 20,5X 39 - 4,5L – 1.338K;;1;2;2,3;Aluminio;Antiaderente;Preto;Aluminio;0;Baquelite;;Baquelite;1
es_ES;000001;382,jpg;OLLA DE PRESIÓN EIRIFLON;;1;2;0;Aluminio;Antiaderente;Preto;Aluminio;0;Baquelite;;Baquelite;1
es_ES;382;382,jpg;OLLA DE PRESIÓN EIRIFLON 10,00 LTS - 20,5X 26X 45 - 10L – 2.162L;;1;2;0;Aluminio;Antiaderente;Preto;Aluminio;0;Baquelite;;Baquelite;1
es_ES;909;382,jpg;OLLA DE PRESIÓN EIRIFLON 2,00 LTS - 9X 19,5X 38 - 2L – 800GR;;1;2;0;Aluminio;Antiaderente;Preto;Aluminio;0;Baquelite;;Baquelite;1
es_ES;401;382,jpg;OLLA DE PRESIÓN EIRIFLON 3,00 LTS - 10,5X 20,5X 39 - 3L – 1.100K;;1;2;0;Aluminio;Antiaderente;Preto;Aluminio;0;Baquelite;;Baquelite;1
es_ES;903;382,jpg;OLLA DE PRESIÓN EIRIFLON 4,05 LTS - 14,5X 19,5X 38 - 4,05L – 1.096K;;1;2;0;Aluminio;Antiaderente;Preto;Aluminio;0;Baquelite;;Baquelite;1
es_ES;307;382,jpg;OLLA DE PRESIÓN EIRIFLON 7,00 LTS - 18,5X 22,5X 42 - 7L - 1.858K ;;1;2;0;Aluminio;Antiaderente;Preto;Aluminio;0;Baquelite;;Baquelite;1
es_ES;000001;398,jpg;OLLA DE PRESIÓN POLIDA NEW LINE 4,5;;1;2;2,3;Aluminio;Fosco;Polido;Aluminio;0;Baquelite;;Baquelite;1
es_ES;398;398,jpg;OLLA DE PRESIÓN POLIDA NEW LINE 4,5 - 15X 20,5X 39 - 4,5L – 1.370K;;1;2;2,3;Aluminio;Fosco;Polido;Aluminio;0;Baquelite;;Baquelite;1
es_ES;000001;905,jpg;OLLA DE PRESIÓN PROFESIONAL;;1;2;4;Aluminio;Fosco;Polido;Aluminio;0;;;Baquelite;1
es_ES;905;905,jpg;OLLA DE PRESIÓN PROFESIONAL 13 LTS - 16X 33X 48 - 13L – 5.788K;;1;2;4;Aluminio;Fosco;Polido;Aluminio;0;;;Baquelite;1
es_ES;906;905,jpg;OLLA DE PRESIÓN PROFESIONAL 18 LTS -  21X 33X 48 - 18L – 6.395K;;1;2;4;Aluminio;Fosco;Polido;Aluminio;0;;;Baquelite;1
es_ES;907;905,jpg;OLLA DE PRESIÓN PROFESIONAL 22 LTS - 25X 33X 48  - 22L – 6.951K;;1;2;4;Aluminio;Fosco;Polido;Aluminio;0;;;Baquelite;1
es_ES;000001;271,jpg;PANELA EIRIFLON ESPECIAL;;1;2;1,2;Aluminio;Antiaderente;Preto;Aluminio;1;Baquelite;Baquelite;;0
es_ES;271;271,jpg;PANELA EIRIFLON ESPECIAL 16 - 7X 16X 28 - 1,5L - 265 GR;;1;2;1,2;Aluminio;Antiaderente;Preto;Aluminio;1;Baquelite;Baquelite;;0
es_ES;272;271,jpg;PANELA EIRIFLON ESPECIAL 18 - 7,5X 18X 33 - 2L – 335GR;;1;2;1,2;Aluminio;Antiaderente;Preto;Aluminio;1;Baquelite;Baquelite;;0
es_ES;273;271,jpg;PANELA EIRIFLON ESPECIAL 20 - 8X  20X 35 - 2,7L – 365GR;;1;2;1,2;Aluminio;Antiaderente;Preto;Aluminio;1;Baquelite;Baquelite;;0
es_ES;597;271,jpg;PANELA EIRIFLON ESPECIAL 22- 9X 22X 37 - 2,8L – 425GR;;1;2;1,2;Aluminio;Antiaderente;Preto;Aluminio;1;Baquelite;Baquelite;;0
es_ES;598;271,jpg;PANELA EIRIFLON ESPECIAL 24 - 10X 24X 39 - 3,4L – 500GR;;1;2;1,2;Aluminio;Antiaderente;Preto;Aluminio;1;Baquelite;Baquelite;;0
es_ES;000001;73,jpg;OLLA ESPECIAL;;1;2;1,2;Aluminio;Fosco;Polido;Aluminio;1;Baquelite;Baquelite;;0
es_ES;730;73,jpg;OLLA ESPECIAL 16 - 7X 16X 28 - 1,5L – 315GR;;1;2;1,2;Aluminio;Fosco;Polido;Aluminio;1;Baquelite;Baquelite;;0
es_ES;74;73,jpg;OLLA ESPECIAL 18- 7X  18X 33 - 2L – 355GR;;1;2;1,2;Aluminio;Fosco;Polido;Aluminio;1;Baquelite;Baquelite;;0
es_ES;75;73,jpg;OLLA ESPECIAL 20  - 8X 20X 35 - 2,7L – 435GR;;1;2;1,2;Aluminio;Fosco;Polido;Aluminio;1;Baquelite;Baquelite;;0
es_ES;76;73,jpg;OLLA ESPECIAL 22 - 9X 22X 37 - 3,4L – 525GR;;1;2;1,2;Aluminio;Fosco;Polido;Aluminio;1;Baquelite;Baquelite;;0
es_ES;000001;780,jpg;OLLA L L CLARITY EIRIFLON;;1;2;3;Aluminio;Antiaderente;Preto;Vidro;1;Baquelite;Baquelite;;0
es_ES;780;780,jpg;OLLA L L CLARITY EIRIFLON 18 - 9X 18X 35 - 2L – 932GR;;1;2;3;Aluminio;Antiaderente;Preto;Vidro;1;Baquelite;Baquelite;;0
es_ES;781;780,jpg;OLLA L L CLARITY EIRIFLON 20 - 10X 20X 37,5 - 2,7L – 1.084K;;1;2;3;Aluminio;Antiaderente;Preto;Vidro;1;Baquelite;Baquelite;;0
es_ES;782;780,jpg;OLLA L L CLARITY EIRIFLON 22 - 11X 22X 45,5 - 3,7L - 1.434K ;;1;2;3;Aluminio;Antiaderente;Preto;Vidro;1;Baquelite;Baquelite;;0
es_ES;000001;751,jpg;OLLA L L CLARITY RED;;1;2;3;Aluminio;Antiaderente;Vermelho;Vidro;1;Baquelite;Baquelite;;0
es_ES;751;751,jpg;OLLA L L CLARITY RED 18 - 9X 18X 36 - 2L – 930GR;;1;2;3;Aluminio;Antiaderente;Vermelho;Vidro;1;Baquelite;Baquelite;;0
es_ES;752;751,jpg;OLLA L L CLARITY RED 20 - 10X 20X 38 - 2,7L 1.074K;;1;2;3;Aluminio;Antiaderente;Vermelho;Vidro;1;Baquelite;Baquelite;;0
es_ES;753;751,jpg;OLLA L L CLARITY RED 22 - 11X 22X 46 - 3,7 – 1.352K;;1;2;3;Aluminio;Antiaderente;Vermelho;Vidro;1;Baquelite;Baquelite;;0
es_ES;000001;200,jpg;OLLA LONG LIFE;;1;2;3;Aluminio;Fosco;Polido;Aluminio;1;Baquelite;Baquelite;;0
es_ES;200;200,jpg;200 - OLLA LONG LIFE 16 - 8X 16,5X 33 - 1,4L – 658GR;;1;2;3;Aluminio;Fosco;Polido;Aluminio;1;Baquelite;Baquelite;;0
es_ES;201;200,jpg;201 - OLLA LONG LIFE 18 - 8,5X 18,5X 35 - 2,2L – 772GR;;1;2;3;Aluminio;Fosco;Polido;Aluminio;1;Baquelite;Baquelite;;0
es_ES;202;200,jpg;202 - OLLA LONG LIFE 20 - 9,5X 20X 37 - 2,7L – 956GR;;1;2;3;Aluminio;Fosco;Polido;Aluminio;1;Baquelite;Baquelite;;0
es_ES;203;200,jpg;203 - OLLA LONG LIFE 22 - 10X 22,5X 45,5 - 3,7L – 1.162K;;1;2;3;Aluminio;Fosco;Polido;Aluminio;1;Baquelite;Baquelite;;0
es_ES;204;200,jpg;204 - OLLA LONG LIFE 24 - 12X 24X 49 - 5L – 1.360K;;1;2;3;Aluminio;Fosco;Polido;Aluminio;1;Baquelite;Baquelite;;0
es_ES;000001;561,jpg;OLLA LONG LIFE EIRIFLON;;1;2;3;Aluminio;Antiaderente;Preto;Aluminio;1;Baquelite;Baquelite;;0
es_ES;561;561,jpg;561 - OLLA LONG LIFE EIRIFLON 16 - 8X 16X 33 - 1,4L – 610GR;;1;2;3;Aluminio;Antiaderente;Preto;Aluminio;1;Baquelite;Baquelite;;0
es_ES;562;561,jpg;562 - OLLA LONG LIFE EIRIFLON 18 - 9X 18X 34 - 2L – 750GR;;1;2;3;Aluminio;Antiaderente;Preto;Aluminio;1;Baquelite;Baquelite;;0
es_ES;563;561,jpg;563 - OLLA LONG LIFE EIRIFLON 20 - 10X 20X 36 - 2,7L – 862GR;;1;2;3;Aluminio;Antiaderente;Preto;Aluminio;1;Baquelite;Baquelite;;0
es_ES;564;561,jpg;564 - OLLA LONG LIFE EIRIFLON 22 - 11X 22X 47 - 3,7L – 1.192K;;1;2;3;Aluminio;Antiaderente;Preto;Aluminio;1;Baquelite;Baquelite;;0
es_ES;565;561,jpg;565 - OLLA LONG LIFE EIRIFLON 24 - 12X 24X 49 - 5L – 1.364K;;1;2;3;Aluminio;Antiaderente;Preto;Aluminio;1;Baquelite;Baquelite;;0
es_ES;001;47,jpg;OLLA NOBLE;;1;2;1,7;Aluminio;Fosco;Polido;Aluminio;1;Baquelite;Baquelite;;0
es_ES;472;47,jpg;OLLA NOBLE 14 - 6X 14X 26 - 1L – 390GR;;1;2;1,7;Aluminio;Fosco;Polido;Aluminio;1;Baquelite;Baquelite;;0
es_ES;48;47,jpg;OLLA NOBLE 16 - 8X 16X 33 - 1,5L – 470GR;;1;2;1,7;Aluminio;Fosco;Polido;Aluminio;1;Baquelite;Baquelite;;0
es_ES;49;47,jpg;OLLA NOBLE 18 - 8X 18X 35 - 2L – 570GR;;1;2;1,7;Aluminio;Fosco;Polido;Aluminio;1;Baquelite;Baquelite;;0
es_ES;50;47,jpg;OLLA NOBLE 20 - 9X 20X 37 - 2,7L – 670GR;;1;2;1,7;Aluminio;Fosco;Polido;Aluminio;1;Baquelite;Baquelite;;0
es_ES;51;47,jpg;OLLA NOBLE 22 - 10X 22X 38 - 3,6L – 820GR;;1;2;1,7;Aluminio;Fosco;Polido;Aluminio;1;Baquelite;Baquelite;;0
es_ES;513;47,jpg;OLLA NOBLE 24 - 11X 24X 47 - 4,6L – 962GR;;1;2;1,7;Aluminio;Fosco;Polido;Aluminio;1;Baquelite;Baquelite;;0
es_ES;000001;228,jpg;OLLA NOBLE EIRIFLON;;1;2;1,7;Aluminio;Antiaderente;Preto;Aluminio;1;Baquelite;Baquelite;;0
es_ES;228;228,jpg;OLLA NOBLE EIRIFLON 16 - 8X 16X 32 - 1,5L – 465GR;;1;2;1,7;Aluminio;Antiaderente;Preto;Aluminio;1;Baquelite;Baquelite;;0
es_ES;229;228,jpg;OLLA NOBLE EIRIFLON 18 - 8X 18X 34 - 2L – 575GR;;1;2;1,7;Aluminio;Antiaderente;Preto;Aluminio;1;Baquelite;Baquelite;;0
es_ES;230;228,jpg;OLLA NOBLE EIRIFLON 20 - 9X 20X 36 -2,7L – 660GR;;1;2;1,7;Aluminio;Antiaderente;Preto;Aluminio;1;Baquelite;Baquelite;;0
es_ES;231;228,jpg;OLLA NOBLE EIRIFLON 22 - 10X 22X 47 - 3,6L – 800GR;;1;2;1,7;Aluminio;Antiaderente;Preto;Aluminio;1;Baquelite;Baquelite;;0
es_ES;232;228,jpg;OLLA NOBLE EIRIFLON 24 - 11X 24X 49 - 4,6L – 975GR;;1;2;1,7;Aluminio;Antiaderente;Preto;Aluminio;1;Baquelite;Baquelite;;0
es_ES;000001;339,jpg;OLLA NOBLE RED;;1;2;1,7;Aluminio;Antiaderente;Vermelho;Vidro;1;Baquelite;Baquelite;;0
es_ES;339;339,jpg;OLLA NOBLE RED 18 - 8X 18X 35 - 2L – 575GR;;1;2;1,7;Aluminio;Antiaderente;Vermelho;Vidro;1;Baquelite;Baquelite;;0
es_ES;340;339,jpg;OLLA NOBLE RED 20 - 11X 20X 37 - 2,7L - 660GR ;;1;2;1,7;Aluminio;Antiaderente;Vermelho;Vidro;1;Baquelite;Baquelite;;0
es_ES;341;339,jpg;OLLA NOBLE RED 22 - 11X 22X 39 - 3,6L – 800GR;;1;2;1,7;Aluminio;Antiaderente;Vermelho;Vidro;1;Baquelite;Baquelite;;0
es_ES;342;339,jpg;OLLA NOBLE RED 24 - 12X 24X 47 - 4,6L – 1.000K;;1;2;1,7;Aluminio;Antiaderente;Vermelho;Vidro;1;Baquelite;Baquelite;;0
es_ES;000001;308,jpg;OLLA PRESIÓN EIRIF 7 L TP PULIDA;;1;2;2,4;Aluminio;Antiaderente;Preto;Aluminio;0;Baquelite;;Baquelite;1
es_ES;308;308,jpg;OLLA PRESIÓN EIRIF 7 L TP PULIDA - 18,5X 22,5X 42 - 7L – 2.056K;;1;2;2,4;Aluminio;Antiaderente;Preto;Aluminio;0;Baquelite;;Baquelite;1
es_ES;000001;920.jpg;OLLA PRESIÓN NEW LINE 10 LITROS PULIDA;;1;2;3;Aluminio;Fosco;Polido;Aluminio;0;Baquelite;;Baquelite;1
es_ES;920;920.jpg;OLLA PRESIÓN NEW LINE 10 LITROS PULIDA  - 22X 27,5X 46 - 10L – 3.222K;;1;2;3;Aluminio;Fosco;Polido;Aluminio;0;Baquelite;;Baquelite;1
es_ES;000001;854,jpg;OLLA PRESIÓN NEW LINE 4 LITROS;;1;2;3;Aluminio;Antiaderente;Preto;Aluminio;0;Baquelite;;Baquelite;1
es_ES;854;854,jpg;OLLA PRESIÓN NEW LINE 4 LITROS EIRIF - 9,5X 27,5X 46 - 4L – 2.354K;;1;2;3;Aluminio;Antiaderente;Preto;Aluminio;0;Baquelite;;Baquelite;1
es_ES;856;854,jpg;OLLA PRESIÓN NEW LINE 4 LITROS GREEN - 9,5X 27,5X 46 - 4L – 2.354K;;1;2;3;Aluminio;Antiaderente;Preto;Aluminio;0;Baquelite;;Baquelite;1
es_ES;000001;853,jpg;OLLA PRESIÓN NEW LINE 4 LITROS PULIDA;;1;2;3;Aluminio;Fosco;Polido;Aluminio;0;Baquelite;;Baquelite;1
es_ES;853;853,jpg;OLLA PRESIÓN NEW LINE 4 LITROS PULIDA - 9,5X 27,5X 46 - 4L – 2.354K;;1;2;3;Aluminio;Fosco;Polido;Aluminio;0;Baquelite;;Baquelite;1
es_ES;000001;855,jpg;OLLA PRESIÓN NEW LINE 4 LITROS RED;;1;2;3;Aluminio;Antiaderente;Vermelho;Aluminio;0;Baquelite;;Baquelite;1
es_ES;855;855,jpg;OLLA PRESIÓN NEW LINE 4 LITROS RED - 9,5X 27,5X 46 - 4L – 2.354K;;1;2;3;Aluminio;Antiaderente;Vermelho;Aluminio;0;Baquelite;;Baquelite;1
es_ES;000001;921,jpg;OLLA PRESIÓN NEW LINE 5 LITROS EIRIF;;1;2;3;Aluminio;Antiaderente;Preto;Aluminio;0;Baquelite;;Baquelite;1
es_ES;921;921,jpg;OLLA PRESIÓN NEW LINE 5 LITROS EIRIF - 13X 27,5X 46 - 5L – 2.590K;;1;2;3;Aluminio;Antiaderente;Preto;Aluminio;0;Baquelite;;Baquelite;1
es_ES;000001;918,jpg;OLLA PRESIÓN NEW LINE 5 LITROS PULIDA;;1;2;3;Aluminio;Fosco;Polido;Aluminio;0;Baquelite;;Baquelite;1
es_ES;918;918,jpg;OLLA PRESIÓN NEW LINE 5 LITROS PULIDA - 13X 27,5X 46 - 5L – 2.584K;;1;2;3.0;Aluminio;Fosco;Polido;Aluminio;0;Baquelite;;Baquelite;1
es_ES;000001;927,jpg;OLLA PRESIÓN NEW LINE 5 LITROS RED;;1;2;3;Aluminio;Antiaderente;Vermelho;Aluminio;0;Baquelite;;Baquelite;1
es_ES;927;927,jpg;OLLA PRESIÓN NEW LINE 5 LITROS RED - 13X 27,5X 46 - 5L – 2.584K;;1;2;3;Aluminio;Antiaderente;Vermelho;Aluminio;0;Baquelite;;Baquelite;1
es_ES;000001;922,jpg;OLLA PRESIÓN NEW LINE EIRI;;1;2;3;Aluminio;Antiaderente;Preto;Aluminio;0;Baquelite;;Baquelite;1
es_ES;922;922,jpg;OLLA PRESIÓN NEW LINE 7,5 LITROS EIRI - 17,5X 27,5X 46 - 7,5L – 2.886K;;1;2;3;Aluminio;Antiaderente;Preto;Aluminio;0;Baquelite;;Baquelite;1
es_ES;919;922,jpg;OLLA PRESIÓN NEW LINE 5 LITROS EIRIF - 13X 27,5X 46 - 5L – 2.886K;;1;2;3;Aluminio;Antiaderente;Preto;Aluminio;0;Baquelite;;Baquelite;1
es_ES;000001;928,jpg;OLLA PRESIÓN NEW LINE 7,5 LITROS RED;;1;2;3;Aluminio;Antiaderente;Vermelho;Aluminio;0;Baquelite;;Baquelite;1
es_ES;928;928,jpg;OLLA PRESIÓN NEW LINE 7,5 LITROS RED - 17,5X 27,5X 46 - 7,5L – 2.886K;;1;2;3;Aluminio;Antiaderente;Vermelho;Aluminio;0;Baquelite;;Baquelite;1
es_ES;000001;924,jpg;OLLA PRESIÓN PROFESIONAL;;1;2;4;Aluminio;Fosco;Polido;Aluminio;0;Baquelite;;Baquelite;1
es_ES;924;924,jpg;OLLA PRESIÓN PROFESIONAL 13L C/C - 16X 37X 67 - 13L – 6.365K;;1;2;4;Aluminio;Fosco;Polido;Aluminio;0;Baquelite;;Baquelite;1
es_ES;925;924,jpg;OLLA PRESIÓN PROFESIONAL 18L C/C - 21X 37X 67 - 18L – 7.020K;;1;2;4;Aluminio;Fosco;Polido;Aluminio;0;Baquelite;;Baquelite;1
es_ES;926;924,jpg;OLLA PRESIÓN PROFESIONAL 22L C/C - 21X 37X 67 - 22L – 7.580K;;1;2;4;Aluminio;Fosco;Polido;Aluminio;0;Baquelite;;Baquelite;1
es_ES;000001;433,jpg;SARTÉN PARA PANQUEQUES EIRIFLON;;1;2;1,5;Aluminio;Antiaderente;Preto;;0;Baquelite;;;0
es_ES;433;433,jpg;SARTÉN PARA PANQUEQUES EIRIFLON 22 - 2,5X 22X 37 - 500ML – 240GR;;1;2;1,5;Aluminio;Antiaderente;Preto;;0;Baquelite;;;0
es_ES;434;433,jpg;SARTÉN PARA PANQUEQUES EIRIFLON 24 - 2,5X 24X 39 - 600ML – 262GR;;1;2;1,5;Aluminio;Antiaderente;Preto;;0;Baquelite;;;0
es_ES;000001;642,jpg;OLLA PARA PALOMITAS DE MAIZ BABY 18;;1;2;1,3;Aluminio;Fosco;Polido;Aluminio;0;Baquelite;Baquelite;;0
es_ES;642;642,jpg;OLLA PARA PALOMITAS DE MAIZ BABY 18;;1;2;1,3;Aluminio;Fosco;Polido;Aluminio;0;Baquelite;Baquelite;;0
es_ES;000001;0;OLLA PARA PALOMITAS DE MAIZEIRIFLON 22;;1;2;1,3;Aluminio;Fosco;Polido;Aluminio;0;Baquelite;Baquelite;;0
es_ES;1225;0;OLLA PARA PALOMITAS DE MAIZEIRIFLON 22 - 13X 22X 37 - 4L – 928GR;;1;2;1,3;Aluminio;Antiaderente;Preto;Aluminio;0;Baquelite;Baquelite;;0
es_ES;000001;1200,jpg;OLLA PARA PALOMITAS DE MAIZ HOTEL;;1;2;1,3;Aluminio;Antiaderente;Preto;Aluminio;0;Baquelite;Baquelite;;0
es_ES;1200;1200,jpg;OLLA PARA PALOMITAS DE MAIZ HOTEL - 23X 33X 63 - 17L – 1.878K;;1;2;1,5;Aluminio;Fosco;Polido;Aluminio;0;Baquelite;Baquelite;Baquelite;0
es_ES;000001;178,jpg;OLLA PARA PALOMITAS DE MAIZ LUJO 22;;1;2;1,5;Aluminio;Fosco;Polido;Aluminio;0;Baquelite;Baquelite;Baquelite;0
es_ES;178;178,jpg;OLLA PARA PALOMITAS DE MAIZ LUJO 22 - 13X 22X 37,5 - 4,5L - 1.054K;;1;2;1,2;Aluminio;Fosco;Polido;Aluminio;0;Baquelite;Baquelite;;0
es_ES;000001;300,jpg;OLLA GRANDE LÍNEA HOTEL;;1;2;1,2;Aluminio;Fosco;Polido;Aluminio;0;Baquelite;Baquelite;;0
es_ES;300;300,jpg;OLLA GRANDE LÍNEA HOTEL 35 - 14X 35X 46 - 11L – 990GR;;1;2;1,8;Aluminio;Fosco;Fosco;;0;;;Aluminio;0
es_ES;670;300,jpg;OLLA GRANDE LÍNEA HOTEL 40 - 15X 40X 51 - 14L- 1.325K;;1;2;1,8;Aluminio;Fosco;Fosco;;0;;;Aluminio;0
es_ES;671;300,jpg;OLLA GRANDE LÍNEA HOTEL 50 - 18X 50X 64 - 27L – 2.135K;;1;2;1,8;Aluminio;Fosco;Fosco;;0;;;Aluminio;0
es_ES;672;300,jpg;OLLA GRANDE LÍNEA HOTEL 60 - 21X 60X 75 - 45 – 3.030K;;1;2;1,8;Aluminio;Fosco;Fosco;;0;;;Aluminio;0
